%YAML 1.1
%TAG !u! tag:unity3d.com,2011:
--- !u!29 &1
OcclusionCullingSettings:
  m_ObjectHideFlags: 0
  serializedVersion: 2
  m_OcclusionBakeSettings:
    smallestOccluder: 5
    smallestHole: 0.25
    backfaceThreshold: 100
  m_SceneGUID: 00000000000000000000000000000000
  m_OcclusionCullingData: {fileID: 0}
--- !u!104 &2
RenderSettings:
  m_ObjectHideFlags: 0
  serializedVersion: 9
  m_Fog: 0
  m_FogColor: {r: 0.5, g: 0.5, b: 0.5, a: 1}
  m_FogMode: 3
  m_FogDensity: 0.01
  m_LinearFogStart: 0
  m_LinearFogEnd: 300
  m_AmbientSkyColor: {r: 0.212, g: 0.227, b: 0.259, a: 1}
  m_AmbientEquatorColor: {r: 0.114, g: 0.125, b: 0.133, a: 1}
  m_AmbientGroundColor: {r: 0.047, g: 0.043, b: 0.035, a: 1}
  m_AmbientIntensity: 1
  m_AmbientMode: 0
  m_SubtractiveShadowColor: {r: 0.42, g: 0.478, b: 0.627, a: 1}
  m_SkyboxMaterial: {fileID: 10304, guid: 0000000000000000f000000000000000, type: 0}
  m_HaloStrength: 0.5
  m_FlareStrength: 1
  m_FlareFadeSpeed: 3
  m_HaloTexture: {fileID: 0}
  m_SpotCookie: {fileID: 10001, guid: 0000000000000000e000000000000000, type: 0}
  m_DefaultReflectionMode: 0
  m_DefaultReflectionResolution: 128
  m_ReflectionBounces: 1
  m_ReflectionIntensity: 1
  m_CustomReflection: {fileID: 0}
  m_Sun: {fileID: 0}
  m_IndirectSpecularColor: {r: 0.24647513, g: 0.28234503, b: 0.34570262, a: 1}
  m_UseRadianceAmbientProbe: 0
--- !u!157 &3
LightmapSettings:
  m_ObjectHideFlags: 0
  serializedVersion: 12
  m_GIWorkflowMode: 1
  m_GISettings:
    serializedVersion: 2
    m_BounceScale: 1
    m_IndirectOutputScale: 1
    m_AlbedoBoost: 1
    m_EnvironmentLightingMode: 0
    m_EnableBakedLightmaps: 1
    m_EnableRealtimeLightmaps: 0
  m_LightmapEditorSettings:
    serializedVersion: 12
    m_Resolution: 2
    m_BakeResolution: 40
    m_AtlasSize: 1024
    m_AO: 0
    m_AOMaxDistance: 1
    m_CompAOExponent: 1
    m_CompAOExponentDirect: 0
    m_ExtractAmbientOcclusion: 0
    m_Padding: 2
    m_LightmapParameters: {fileID: 0}
    m_LightmapsBakeMode: 1
    m_TextureCompression: 1
    m_FinalGather: 0
    m_FinalGatherFiltering: 1
    m_FinalGatherRayCount: 256
    m_ReflectionCompression: 2
    m_MixedBakeMode: 2
    m_BakeBackend: 1
    m_PVRSampling: 1
    m_PVRDirectSampleCount: 32
    m_PVRSampleCount: 512
    m_PVRBounces: 2
    m_PVREnvironmentSampleCount: 256
    m_PVREnvironmentReferencePointCount: 2048
    m_PVRFilteringMode: 1
    m_PVRDenoiserTypeDirect: 1
    m_PVRDenoiserTypeIndirect: 1
    m_PVRDenoiserTypeAO: 1
    m_PVRFilterTypeDirect: 0
    m_PVRFilterTypeIndirect: 0
    m_PVRFilterTypeAO: 0
    m_PVREnvironmentMIS: 1
    m_PVRCulling: 1
    m_PVRFilteringGaussRadiusDirect: 1
    m_PVRFilteringGaussRadiusIndirect: 5
    m_PVRFilteringGaussRadiusAO: 2
    m_PVRFilteringAtrousPositionSigmaDirect: 0.5
    m_PVRFilteringAtrousPositionSigmaIndirect: 2
    m_PVRFilteringAtrousPositionSigmaAO: 1
    m_ExportTrainingData: 0
    m_TrainingDataDestination: TrainingData
    m_LightProbeSampleCountMultiplier: 4
  m_LightingDataAsset: {fileID: 0}
  m_LightingSettings: {fileID: 0}
--- !u!196 &4
NavMeshSettings:
  serializedVersion: 2
  m_ObjectHideFlags: 0
  m_BuildSettings:
    serializedVersion: 2
    agentTypeID: 0
    agentRadius: 0.5
    agentHeight: 2
    agentSlope: 45
    agentClimb: 0.4
    ledgeDropHeight: 0
    maxJumpAcrossDistance: 0
    minRegionArea: 2
    manualCellSize: 0
    cellSize: 0.16666667
    manualTileSize: 0
    tileSize: 256
    accuratePlacement: 0
    maxJobWorkers: 0
    preserveTilesOutsideBounds: 0
    debug:
      m_Flags: 0
  m_NavMeshData: {fileID: 0}
--- !u!1001 &29356753
PrefabInstance:
  m_ObjectHideFlags: 0
  serializedVersion: 2
  m_Modification:
    m_TransformParent: {fileID: 2018405992}
    m_Modifications:
    - target: {fileID: 5867689244054825064, guid: 91a6f20cfd256e74b930e72d2e0c2460, type: 3}
      propertyPath: m_Name
      value: Piece (14)
      objectReference: {fileID: 0}
    - target: {fileID: 5867689244054825068, guid: 91a6f20cfd256e74b930e72d2e0c2460, type: 3}
      propertyPath: m_RootOrder
      value: 11
      objectReference: {fileID: 0}
    - target: {fileID: 5867689244054825068, guid: 91a6f20cfd256e74b930e72d2e0c2460, type: 3}
      propertyPath: m_LocalPosition.x
      value: -1.14
      objectReference: {fileID: 0}
    - target: {fileID: 5867689244054825068, guid: 91a6f20cfd256e74b930e72d2e0c2460, type: 3}
      propertyPath: m_LocalPosition.y
      value: 452.15
      objectReference: {fileID: 0}
    - target: {fileID: 5867689244054825068, guid: 91a6f20cfd256e74b930e72d2e0c2460, type: 3}
      propertyPath: m_LocalPosition.z
      value: 0
      objectReference: {fileID: 0}
    - target: {fileID: 5867689244054825068, guid: 91a6f20cfd256e74b930e72d2e0c2460, type: 3}
      propertyPath: m_LocalRotation.w
      value: 1
      objectReference: {fileID: 0}
    - target: {fileID: 5867689244054825068, guid: 91a6f20cfd256e74b930e72d2e0c2460, type: 3}
      propertyPath: m_LocalRotation.x
      value: -0
      objectReference: {fileID: 0}
    - target: {fileID: 5867689244054825068, guid: 91a6f20cfd256e74b930e72d2e0c2460, type: 3}
      propertyPath: m_LocalRotation.y
      value: -0
      objectReference: {fileID: 0}
    - target: {fileID: 5867689244054825068, guid: 91a6f20cfd256e74b930e72d2e0c2460, type: 3}
      propertyPath: m_LocalRotation.z
      value: -0
      objectReference: {fileID: 0}
    - target: {fileID: 5867689244054825068, guid: 91a6f20cfd256e74b930e72d2e0c2460, type: 3}
      propertyPath: m_LocalEulerAnglesHint.x
      value: 0
      objectReference: {fileID: 0}
    - target: {fileID: 5867689244054825068, guid: 91a6f20cfd256e74b930e72d2e0c2460, type: 3}
      propertyPath: m_LocalEulerAnglesHint.y
      value: 0
      objectReference: {fileID: 0}
    - target: {fileID: 5867689244054825068, guid: 91a6f20cfd256e74b930e72d2e0c2460, type: 3}
      propertyPath: m_LocalEulerAnglesHint.z
      value: 0
      objectReference: {fileID: 0}
    m_RemovedComponents: []
  m_SourcePrefab: {fileID: 100100000, guid: 91a6f20cfd256e74b930e72d2e0c2460, type: 3}
--- !u!4 &29356754 stripped
Transform:
  m_CorrespondingSourceObject: {fileID: 5867689244054825068, guid: 91a6f20cfd256e74b930e72d2e0c2460, type: 3}
  m_PrefabInstance: {fileID: 29356753}
  m_PrefabAsset: {fileID: 0}
--- !u!1001 &168251771
PrefabInstance:
  m_ObjectHideFlags: 0
  serializedVersion: 2
  m_Modification:
    m_TransformParent: {fileID: 2018405992}
    m_Modifications:
    - target: {fileID: 5867689244054825064, guid: 91a6f20cfd256e74b930e72d2e0c2460, type: 3}
      propertyPath: m_Name
      value: Piece (4)
      objectReference: {fileID: 0}
    - target: {fileID: 5867689244054825068, guid: 91a6f20cfd256e74b930e72d2e0c2460, type: 3}
      propertyPath: m_RootOrder
      value: 3
      objectReference: {fileID: 0}
    - target: {fileID: 5867689244054825068, guid: 91a6f20cfd256e74b930e72d2e0c2460, type: 3}
      propertyPath: m_LocalPosition.x
      value: 0
      objectReference: {fileID: 0}
    - target: {fileID: 5867689244054825068, guid: 91a6f20cfd256e74b930e72d2e0c2460, type: 3}
      propertyPath: m_LocalPosition.y
      value: 451
      objectReference: {fileID: 0}
    - target: {fileID: 5867689244054825068, guid: 91a6f20cfd256e74b930e72d2e0c2460, type: 3}
      propertyPath: m_LocalPosition.z
      value: 1.11
      objectReference: {fileID: 0}
    - target: {fileID: 5867689244054825068, guid: 91a6f20cfd256e74b930e72d2e0c2460, type: 3}
      propertyPath: m_LocalRotation.w
      value: 1
      objectReference: {fileID: 0}
    - target: {fileID: 5867689244054825068, guid: 91a6f20cfd256e74b930e72d2e0c2460, type: 3}
      propertyPath: m_LocalRotation.x
      value: -0
      objectReference: {fileID: 0}
    - target: {fileID: 5867689244054825068, guid: 91a6f20cfd256e74b930e72d2e0c2460, type: 3}
      propertyPath: m_LocalRotation.y
      value: -0
      objectReference: {fileID: 0}
    - target: {fileID: 5867689244054825068, guid: 91a6f20cfd256e74b930e72d2e0c2460, type: 3}
      propertyPath: m_LocalRotation.z
      value: -0
      objectReference: {fileID: 0}
    - target: {fileID: 5867689244054825068, guid: 91a6f20cfd256e74b930e72d2e0c2460, type: 3}
      propertyPath: m_LocalEulerAnglesHint.x
      value: 0
      objectReference: {fileID: 0}
    - target: {fileID: 5867689244054825068, guid: 91a6f20cfd256e74b930e72d2e0c2460, type: 3}
      propertyPath: m_LocalEulerAnglesHint.y
      value: 0
      objectReference: {fileID: 0}
    - target: {fileID: 5867689244054825068, guid: 91a6f20cfd256e74b930e72d2e0c2460, type: 3}
      propertyPath: m_LocalEulerAnglesHint.z
      value: 0
      objectReference: {fileID: 0}
    m_RemovedComponents: []
  m_SourcePrefab: {fileID: 100100000, guid: 91a6f20cfd256e74b930e72d2e0c2460, type: 3}
--- !u!4 &168251772 stripped
Transform:
  m_CorrespondingSourceObject: {fileID: 5867689244054825068, guid: 91a6f20cfd256e74b930e72d2e0c2460, type: 3}
  m_PrefabInstance: {fileID: 168251771}
  m_PrefabAsset: {fileID: 0}
--- !u!4 &257739766 stripped
Transform:
  m_CorrespondingSourceObject: {fileID: 5867689244054825068, guid: 91a6f20cfd256e74b930e72d2e0c2460, type: 3}
  m_PrefabInstance: {fileID: 5867689244169364378}
  m_PrefabAsset: {fileID: 0}
--- !u!1 &274561505
GameObject:
  m_ObjectHideFlags: 0
  m_CorrespondingSourceObject: {fileID: 0}
  m_PrefabInstance: {fileID: 0}
  m_PrefabAsset: {fileID: 0}
  serializedVersion: 6
  m_Component:
  - component: {fileID: 274561508}
  - component: {fileID: 274561507}
  - component: {fileID: 274561506}
  - component: {fileID: 274561509}
  m_Layer: 0
  m_Name: Main Camera
  m_TagString: MainCamera
  m_Icon: {fileID: 0}
  m_NavMeshLayer: 0
  m_StaticEditorFlags: 0
  m_IsActive: 1
--- !u!81 &274561506
AudioListener:
  m_ObjectHideFlags: 0
  m_CorrespondingSourceObject: {fileID: 0}
  m_PrefabInstance: {fileID: 0}
  m_PrefabAsset: {fileID: 0}
  m_GameObject: {fileID: 274561505}
  m_Enabled: 1
--- !u!20 &274561507
Camera:
  m_ObjectHideFlags: 0
  m_CorrespondingSourceObject: {fileID: 0}
  m_PrefabInstance: {fileID: 0}
  m_PrefabAsset: {fileID: 0}
  m_GameObject: {fileID: 274561505}
  m_Enabled: 1
  serializedVersion: 2
  m_ClearFlags: 1
  m_BackGroundColor: {r: 0.19215687, g: 0.3019608, b: 0.4745098, a: 0}
  m_projectionMatrixMode: 1
  m_GateFitMode: 2
  m_FOVAxisMode: 0
  m_SensorSize: {x: 36, y: 24}
  m_LensShift: {x: 0, y: 0}
  m_FocalLength: 50
  m_NormalizedViewPortRect:
    serializedVersion: 2
    x: 0
    y: 0
    width: 1
    height: 1
  near clip plane: 0.3
  far clip plane: 1000
  field of view: 60
  orthographic: 0
  orthographic size: 5
  m_Depth: -1
  m_CullingMask:
    serializedVersion: 2
    m_Bits: 4294967295
  m_RenderingPath: -1
  m_TargetTexture: {fileID: 0}
  m_TargetDisplay: 0
  m_TargetEye: 3
  m_HDR: 1
  m_AllowMSAA: 1
  m_AllowDynamicResolution: 0
  m_ForceIntoRT: 0
  m_OcclusionCulling: 1
  m_StereoConvergence: 10
  m_StereoSeparation: 0.022
--- !u!4 &274561508
Transform:
  m_ObjectHideFlags: 0
  m_CorrespondingSourceObject: {fileID: 0}
  m_PrefabInstance: {fileID: 0}
  m_PrefabAsset: {fileID: 0}
  m_GameObject: {fileID: 274561505}
  m_LocalRotation: {x: 0.26229003, y: -0, z: -0, w: 0.96498907}
  m_LocalPosition: {x: -0.31, y: 454.73, z: -4.84}
  m_LocalScale: {x: 1, y: 1, z: 1}
  m_Children: []
  m_Father: {fileID: 0}
  m_RootOrder: 0
  m_LocalEulerAnglesHint: {x: 30.412, y: 0, z: 0}
--- !u!114 &274561509
MonoBehaviour:
  m_ObjectHideFlags: 0
  m_CorrespondingSourceObject: {fileID: 0}
  m_PrefabInstance: {fileID: 0}
  m_PrefabAsset: {fileID: 0}
  m_GameObject: {fileID: 274561505}
  m_Enabled: 1
  m_EditorHideFlags: 0
  m_Script: {fileID: 11500000, guid: a79441f348de89743a2939f4d699eac1, type: 3}
  m_Name: 
  m_EditorClassIdentifier: 
  m_RenderShadows: 1
  m_RequiresDepthTextureOption: 2
  m_RequiresOpaqueTextureOption: 2
  m_CameraType: 0
  m_Cameras: []
  m_RendererIndex: -1
  m_VolumeLayerMask:
    serializedVersion: 2
    m_Bits: 1
  m_VolumeTrigger: {fileID: 0}
  m_VolumeFrameworkUpdateModeOption: 2
  m_RenderPostProcessing: 0
  m_Antialiasing: 0
  m_AntialiasingQuality: 2
  m_StopNaN: 0
  m_Dithering: 0
  m_ClearDepth: 1
  m_AllowXRRendering: 1
  m_RequiresDepthTexture: 0
  m_RequiresColorTexture: 0
  m_Version: 2
--- !u!1001 &462136903
PrefabInstance:
  m_ObjectHideFlags: 0
  serializedVersion: 2
  m_Modification:
    m_TransformParent: {fileID: 2018405992}
    m_Modifications:
    - target: {fileID: 5867689244054825064, guid: 91a6f20cfd256e74b930e72d2e0c2460, type: 3}
      propertyPath: m_Name
      value: Piece (16)
      objectReference: {fileID: 0}
    - target: {fileID: 5867689244054825068, guid: 91a6f20cfd256e74b930e72d2e0c2460, type: 3}
      propertyPath: m_RootOrder
      value: 15
      objectReference: {fileID: 0}
    - target: {fileID: 5867689244054825068, guid: 91a6f20cfd256e74b930e72d2e0c2460, type: 3}
      propertyPath: m_LocalPosition.x
      value: 1.14
      objectReference: {fileID: 0}
    - target: {fileID: 5867689244054825068, guid: 91a6f20cfd256e74b930e72d2e0c2460, type: 3}
      propertyPath: m_LocalPosition.y
      value: 452.15
      objectReference: {fileID: 0}
    - target: {fileID: 5867689244054825068, guid: 91a6f20cfd256e74b930e72d2e0c2460, type: 3}
      propertyPath: m_LocalPosition.z
      value: 2.23
      objectReference: {fileID: 0}
    - target: {fileID: 5867689244054825068, guid: 91a6f20cfd256e74b930e72d2e0c2460, type: 3}
      propertyPath: m_LocalRotation.w
      value: 1
      objectReference: {fileID: 0}
    - target: {fileID: 5867689244054825068, guid: 91a6f20cfd256e74b930e72d2e0c2460, type: 3}
      propertyPath: m_LocalRotation.x
      value: -0
      objectReference: {fileID: 0}
    - target: {fileID: 5867689244054825068, guid: 91a6f20cfd256e74b930e72d2e0c2460, type: 3}
      propertyPath: m_LocalRotation.y
      value: -0
      objectReference: {fileID: 0}
    - target: {fileID: 5867689244054825068, guid: 91a6f20cfd256e74b930e72d2e0c2460, type: 3}
      propertyPath: m_LocalRotation.z
      value: -0
      objectReference: {fileID: 0}
    - target: {fileID: 5867689244054825068, guid: 91a6f20cfd256e74b930e72d2e0c2460, type: 3}
      propertyPath: m_LocalEulerAnglesHint.x
      value: 0
      objectReference: {fileID: 0}
    - target: {fileID: 5867689244054825068, guid: 91a6f20cfd256e74b930e72d2e0c2460, type: 3}
      propertyPath: m_LocalEulerAnglesHint.y
      value: 0
      objectReference: {fileID: 0}
    - target: {fileID: 5867689244054825068, guid: 91a6f20cfd256e74b930e72d2e0c2460, type: 3}
      propertyPath: m_LocalEulerAnglesHint.z
      value: 0
      objectReference: {fileID: 0}
    m_RemovedComponents: []
  m_SourcePrefab: {fileID: 100100000, guid: 91a6f20cfd256e74b930e72d2e0c2460, type: 3}
--- !u!4 &462136904 stripped
Transform:
  m_CorrespondingSourceObject: {fileID: 5867689244054825068, guid: 91a6f20cfd256e74b930e72d2e0c2460, type: 3}
  m_PrefabInstance: {fileID: 462136903}
  m_PrefabAsset: {fileID: 0}
--- !u!1 &541803471
GameObject:
  m_ObjectHideFlags: 0
  m_CorrespondingSourceObject: {fileID: 0}
  m_PrefabInstance: {fileID: 0}
  m_PrefabAsset: {fileID: 0}
  serializedVersion: 6
  m_Component:
  - component: {fileID: 541803472}
  m_Layer: 0
  m_Name: CubeHolder
  m_TagString: Untagged
  m_Icon: {fileID: 0}
  m_NavMeshLayer: 0
  m_StaticEditorFlags: 0
  m_IsActive: 1
--- !u!4 &541803472
Transform:
  m_ObjectHideFlags: 0
  m_CorrespondingSourceObject: {fileID: 0}
  m_PrefabInstance: {fileID: 0}
  m_PrefabAsset: {fileID: 0}
  m_GameObject: {fileID: 541803471}
  m_LocalRotation: {x: 0, y: 0, z: 0, w: 1}
  m_LocalPosition: {x: 0, y: 451, z: 0}
  m_LocalScale: {x: 1, y: 1, z: 1}
  m_Children:
  - {fileID: 2018405992}
  m_Father: {fileID: 0}
  m_RootOrder: 2
  m_LocalEulerAnglesHint: {x: 0, y: 0, z: 0}
--- !u!1001 &566991461
PrefabInstance:
  m_ObjectHideFlags: 0
  serializedVersion: 2
  m_Modification:
    m_TransformParent: {fileID: 2018405992}
    m_Modifications:
    - target: {fileID: 5867689244054825064, guid: 91a6f20cfd256e74b930e72d2e0c2460, type: 3}
      propertyPath: m_Name
      value: Piece (23)
      objectReference: {fileID: 0}
    - target: {fileID: 5867689244054825068, guid: 91a6f20cfd256e74b930e72d2e0c2460, type: 3}
      propertyPath: m_RootOrder
      value: 20
      objectReference: {fileID: 0}
    - target: {fileID: 5867689244054825068, guid: 91a6f20cfd256e74b930e72d2e0c2460, type: 3}
      propertyPath: m_LocalPosition.x
      value: -1.14
      objectReference: {fileID: 0}
    - target: {fileID: 5867689244054825068, guid: 91a6f20cfd256e74b930e72d2e0c2460, type: 3}
      propertyPath: m_LocalPosition.y
      value: 453.24
      objectReference: {fileID: 0}
    - target: {fileID: 5867689244054825068, guid: 91a6f20cfd256e74b930e72d2e0c2460, type: 3}
      propertyPath: m_LocalPosition.z
      value: 1.11
      objectReference: {fileID: 0}
    - target: {fileID: 5867689244054825068, guid: 91a6f20cfd256e74b930e72d2e0c2460, type: 3}
      propertyPath: m_LocalRotation.w
      value: 1
      objectReference: {fileID: 0}
    - target: {fileID: 5867689244054825068, guid: 91a6f20cfd256e74b930e72d2e0c2460, type: 3}
      propertyPath: m_LocalRotation.x
      value: -0
      objectReference: {fileID: 0}
    - target: {fileID: 5867689244054825068, guid: 91a6f20cfd256e74b930e72d2e0c2460, type: 3}
      propertyPath: m_LocalRotation.y
      value: -0
      objectReference: {fileID: 0}
    - target: {fileID: 5867689244054825068, guid: 91a6f20cfd256e74b930e72d2e0c2460, type: 3}
      propertyPath: m_LocalRotation.z
      value: -0
      objectReference: {fileID: 0}
    - target: {fileID: 5867689244054825068, guid: 91a6f20cfd256e74b930e72d2e0c2460, type: 3}
      propertyPath: m_LocalEulerAnglesHint.x
      value: 0
      objectReference: {fileID: 0}
    - target: {fileID: 5867689244054825068, guid: 91a6f20cfd256e74b930e72d2e0c2460, type: 3}
      propertyPath: m_LocalEulerAnglesHint.y
      value: 0
      objectReference: {fileID: 0}
    - target: {fileID: 5867689244054825068, guid: 91a6f20cfd256e74b930e72d2e0c2460, type: 3}
      propertyPath: m_LocalEulerAnglesHint.z
      value: 0
      objectReference: {fileID: 0}
    m_RemovedComponents: []
  m_SourcePrefab: {fileID: 100100000, guid: 91a6f20cfd256e74b930e72d2e0c2460, type: 3}
--- !u!4 &566991462 stripped
Transform:
  m_CorrespondingSourceObject: {fileID: 5867689244054825068, guid: 91a6f20cfd256e74b930e72d2e0c2460, type: 3}
  m_PrefabInstance: {fileID: 566991461}
  m_PrefabAsset: {fileID: 0}
--- !u!1001 &733316018
PrefabInstance:
  m_ObjectHideFlags: 0
  serializedVersion: 2
  m_Modification:
    m_TransformParent: {fileID: 2018405992}
    m_Modifications:
    - target: {fileID: 5867689244054825064, guid: 91a6f20cfd256e74b930e72d2e0c2460, type: 3}
      propertyPath: m_Name
      value: Piece (8)
      objectReference: {fileID: 0}
    - target: {fileID: 5867689244054825068, guid: 91a6f20cfd256e74b930e72d2e0c2460, type: 3}
      propertyPath: m_RootOrder
      value: 6
      objectReference: {fileID: 0}
    - target: {fileID: 5867689244054825068, guid: 91a6f20cfd256e74b930e72d2e0c2460, type: 3}
      propertyPath: m_LocalPosition.x
      value: -1.14
      objectReference: {fileID: 0}
    - target: {fileID: 5867689244054825068, guid: 91a6f20cfd256e74b930e72d2e0c2460, type: 3}
      propertyPath: m_LocalPosition.y
      value: 451
      objectReference: {fileID: 0}
    - target: {fileID: 5867689244054825068, guid: 91a6f20cfd256e74b930e72d2e0c2460, type: 3}
      propertyPath: m_LocalPosition.z
      value: 2.23
      objectReference: {fileID: 0}
    - target: {fileID: 5867689244054825068, guid: 91a6f20cfd256e74b930e72d2e0c2460, type: 3}
      propertyPath: m_LocalRotation.w
      value: 1
      objectReference: {fileID: 0}
    - target: {fileID: 5867689244054825068, guid: 91a6f20cfd256e74b930e72d2e0c2460, type: 3}
      propertyPath: m_LocalRotation.x
      value: -0
      objectReference: {fileID: 0}
    - target: {fileID: 5867689244054825068, guid: 91a6f20cfd256e74b930e72d2e0c2460, type: 3}
      propertyPath: m_LocalRotation.y
      value: -0
      objectReference: {fileID: 0}
    - target: {fileID: 5867689244054825068, guid: 91a6f20cfd256e74b930e72d2e0c2460, type: 3}
      propertyPath: m_LocalRotation.z
      value: -0
      objectReference: {fileID: 0}
    - target: {fileID: 5867689244054825068, guid: 91a6f20cfd256e74b930e72d2e0c2460, type: 3}
      propertyPath: m_LocalEulerAnglesHint.x
      value: 0
      objectReference: {fileID: 0}
    - target: {fileID: 5867689244054825068, guid: 91a6f20cfd256e74b930e72d2e0c2460, type: 3}
      propertyPath: m_LocalEulerAnglesHint.y
      value: 0
      objectReference: {fileID: 0}
    - target: {fileID: 5867689244054825068, guid: 91a6f20cfd256e74b930e72d2e0c2460, type: 3}
      propertyPath: m_LocalEulerAnglesHint.z
      value: 0
      objectReference: {fileID: 0}
    m_RemovedComponents: []
  m_SourcePrefab: {fileID: 100100000, guid: 91a6f20cfd256e74b930e72d2e0c2460, type: 3}
--- !u!4 &733316019 stripped
Transform:
  m_CorrespondingSourceObject: {fileID: 5867689244054825068, guid: 91a6f20cfd256e74b930e72d2e0c2460, type: 3}
  m_PrefabInstance: {fileID: 733316018}
  m_PrefabAsset: {fileID: 0}
--- !u!1001 &946235619
PrefabInstance:
  m_ObjectHideFlags: 0
  serializedVersion: 2
  m_Modification:
    m_TransformParent: {fileID: 2018405992}
    m_Modifications:
    - target: {fileID: 5867689244054825064, guid: 91a6f20cfd256e74b930e72d2e0c2460, type: 3}
      propertyPath: m_Name
      value: Piece (24)
      objectReference: {fileID: 0}
    - target: {fileID: 5867689244054825068, guid: 91a6f20cfd256e74b930e72d2e0c2460, type: 3}
      propertyPath: m_RootOrder
      value: 24
      objectReference: {fileID: 0}
    - target: {fileID: 5867689244054825068, guid: 91a6f20cfd256e74b930e72d2e0c2460, type: 3}
      propertyPath: m_LocalPosition.x
      value: 1.14
      objectReference: {fileID: 0}
    - target: {fileID: 5867689244054825068, guid: 91a6f20cfd256e74b930e72d2e0c2460, type: 3}
      propertyPath: m_LocalPosition.y
      value: 453.24
      objectReference: {fileID: 0}
    - target: {fileID: 5867689244054825068, guid: 91a6f20cfd256e74b930e72d2e0c2460, type: 3}
      propertyPath: m_LocalPosition.z
      value: 2.23
      objectReference: {fileID: 0}
    - target: {fileID: 5867689244054825068, guid: 91a6f20cfd256e74b930e72d2e0c2460, type: 3}
      propertyPath: m_LocalRotation.w
      value: 1
      objectReference: {fileID: 0}
    - target: {fileID: 5867689244054825068, guid: 91a6f20cfd256e74b930e72d2e0c2460, type: 3}
      propertyPath: m_LocalRotation.x
      value: -0
      objectReference: {fileID: 0}
    - target: {fileID: 5867689244054825068, guid: 91a6f20cfd256e74b930e72d2e0c2460, type: 3}
      propertyPath: m_LocalRotation.y
      value: -0
      objectReference: {fileID: 0}
    - target: {fileID: 5867689244054825068, guid: 91a6f20cfd256e74b930e72d2e0c2460, type: 3}
      propertyPath: m_LocalRotation.z
      value: -0
      objectReference: {fileID: 0}
    - target: {fileID: 5867689244054825068, guid: 91a6f20cfd256e74b930e72d2e0c2460, type: 3}
      propertyPath: m_LocalEulerAnglesHint.x
      value: 0
      objectReference: {fileID: 0}
    - target: {fileID: 5867689244054825068, guid: 91a6f20cfd256e74b930e72d2e0c2460, type: 3}
      propertyPath: m_LocalEulerAnglesHint.y
      value: 0
      objectReference: {fileID: 0}
    - target: {fileID: 5867689244054825068, guid: 91a6f20cfd256e74b930e72d2e0c2460, type: 3}
      propertyPath: m_LocalEulerAnglesHint.z
      value: 0
      objectReference: {fileID: 0}
    m_RemovedComponents: []
  m_SourcePrefab: {fileID: 100100000, guid: 91a6f20cfd256e74b930e72d2e0c2460, type: 3}
--- !u!4 &946235620 stripped
Transform:
  m_CorrespondingSourceObject: {fileID: 5867689244054825068, guid: 91a6f20cfd256e74b930e72d2e0c2460, type: 3}
  m_PrefabInstance: {fileID: 946235619}
  m_PrefabAsset: {fileID: 0}
--- !u!1001 &1013929075
PrefabInstance:
  m_ObjectHideFlags: 0
  serializedVersion: 2
  m_Modification:
    m_TransformParent: {fileID: 2018405992}
    m_Modifications:
    - target: {fileID: 5867689244054825064, guid: 91a6f20cfd256e74b930e72d2e0c2460, type: 3}
      propertyPath: m_Name
      value: Piece (20)
      objectReference: {fileID: 0}
    - target: {fileID: 5867689244054825068, guid: 91a6f20cfd256e74b930e72d2e0c2460, type: 3}
      propertyPath: m_RootOrder
      value: 17
      objectReference: {fileID: 0}
    - target: {fileID: 5867689244054825068, guid: 91a6f20cfd256e74b930e72d2e0c2460, type: 3}
      propertyPath: m_LocalPosition.x
      value: 0
      objectReference: {fileID: 0}
    - target: {fileID: 5867689244054825068, guid: 91a6f20cfd256e74b930e72d2e0c2460, type: 3}
      propertyPath: m_LocalPosition.y
      value: 453.24
      objectReference: {fileID: 0}
    - target: {fileID: 5867689244054825068, guid: 91a6f20cfd256e74b930e72d2e0c2460, type: 3}
      propertyPath: m_LocalPosition.z
      value: 0
      objectReference: {fileID: 0}
    - target: {fileID: 5867689244054825068, guid: 91a6f20cfd256e74b930e72d2e0c2460, type: 3}
      propertyPath: m_LocalRotation.w
      value: 1
      objectReference: {fileID: 0}
    - target: {fileID: 5867689244054825068, guid: 91a6f20cfd256e74b930e72d2e0c2460, type: 3}
      propertyPath: m_LocalRotation.x
      value: -0
      objectReference: {fileID: 0}
    - target: {fileID: 5867689244054825068, guid: 91a6f20cfd256e74b930e72d2e0c2460, type: 3}
      propertyPath: m_LocalRotation.y
      value: -0
      objectReference: {fileID: 0}
    - target: {fileID: 5867689244054825068, guid: 91a6f20cfd256e74b930e72d2e0c2460, type: 3}
      propertyPath: m_LocalRotation.z
      value: -0
      objectReference: {fileID: 0}
    - target: {fileID: 5867689244054825068, guid: 91a6f20cfd256e74b930e72d2e0c2460, type: 3}
      propertyPath: m_LocalEulerAnglesHint.x
      value: 0
      objectReference: {fileID: 0}
    - target: {fileID: 5867689244054825068, guid: 91a6f20cfd256e74b930e72d2e0c2460, type: 3}
      propertyPath: m_LocalEulerAnglesHint.y
      value: 0
      objectReference: {fileID: 0}
    - target: {fileID: 5867689244054825068, guid: 91a6f20cfd256e74b930e72d2e0c2460, type: 3}
      propertyPath: m_LocalEulerAnglesHint.z
      value: 0
      objectReference: {fileID: 0}
    m_RemovedComponents: []
  m_SourcePrefab: {fileID: 100100000, guid: 91a6f20cfd256e74b930e72d2e0c2460, type: 3}
--- !u!4 &1013929076 stripped
Transform:
  m_CorrespondingSourceObject: {fileID: 5867689244054825068, guid: 91a6f20cfd256e74b930e72d2e0c2460, type: 3}
  m_PrefabInstance: {fileID: 1013929075}
  m_PrefabAsset: {fileID: 0}
--- !u!1001 &1044616871
PrefabInstance:
  m_ObjectHideFlags: 0
  serializedVersion: 2
  m_Modification:
    m_TransformParent: {fileID: 2018405992}
    m_Modifications:
    - target: {fileID: 5867689244054825064, guid: 91a6f20cfd256e74b930e72d2e0c2460, type: 3}
      propertyPath: m_Name
      value: Piece (6)
      objectReference: {fileID: 0}
    - target: {fileID: 5867689244054825068, guid: 91a6f20cfd256e74b930e72d2e0c2460, type: 3}
      propertyPath: m_RootOrder
      value: 8
      objectReference: {fileID: 0}
    - target: {fileID: 5867689244054825068, guid: 91a6f20cfd256e74b930e72d2e0c2460, type: 3}
      propertyPath: m_LocalPosition.x
      value: 0
      objectReference: {fileID: 0}
    - target: {fileID: 5867689244054825068, guid: 91a6f20cfd256e74b930e72d2e0c2460, type: 3}
      propertyPath: m_LocalPosition.y
      value: 451
      objectReference: {fileID: 0}
    - target: {fileID: 5867689244054825068, guid: 91a6f20cfd256e74b930e72d2e0c2460, type: 3}
      propertyPath: m_LocalPosition.z
      value: 2.23
      objectReference: {fileID: 0}
    - target: {fileID: 5867689244054825068, guid: 91a6f20cfd256e74b930e72d2e0c2460, type: 3}
      propertyPath: m_LocalRotation.w
      value: 1
      objectReference: {fileID: 0}
    - target: {fileID: 5867689244054825068, guid: 91a6f20cfd256e74b930e72d2e0c2460, type: 3}
      propertyPath: m_LocalRotation.x
      value: -0
      objectReference: {fileID: 0}
    - target: {fileID: 5867689244054825068, guid: 91a6f20cfd256e74b930e72d2e0c2460, type: 3}
      propertyPath: m_LocalRotation.y
      value: -0
      objectReference: {fileID: 0}
    - target: {fileID: 5867689244054825068, guid: 91a6f20cfd256e74b930e72d2e0c2460, type: 3}
      propertyPath: m_LocalRotation.z
      value: -0
      objectReference: {fileID: 0}
    - target: {fileID: 5867689244054825068, guid: 91a6f20cfd256e74b930e72d2e0c2460, type: 3}
      propertyPath: m_LocalEulerAnglesHint.x
      value: 0
      objectReference: {fileID: 0}
    - target: {fileID: 5867689244054825068, guid: 91a6f20cfd256e74b930e72d2e0c2460, type: 3}
      propertyPath: m_LocalEulerAnglesHint.y
      value: 0
      objectReference: {fileID: 0}
    - target: {fileID: 5867689244054825068, guid: 91a6f20cfd256e74b930e72d2e0c2460, type: 3}
      propertyPath: m_LocalEulerAnglesHint.z
      value: 0
      objectReference: {fileID: 0}
    m_RemovedComponents: []
  m_SourcePrefab: {fileID: 100100000, guid: 91a6f20cfd256e74b930e72d2e0c2460, type: 3}
--- !u!4 &1044616872 stripped
Transform:
  m_CorrespondingSourceObject: {fileID: 5867689244054825068, guid: 91a6f20cfd256e74b930e72d2e0c2460, type: 3}
  m_PrefabInstance: {fileID: 1044616871}
  m_PrefabAsset: {fileID: 0}
--- !u!1001 &1048282134
PrefabInstance:
  m_ObjectHideFlags: 0
  serializedVersion: 2
  m_Modification:
    m_TransformParent: {fileID: 2018405992}
    m_Modifications:
    - target: {fileID: 5867689244054825064, guid: 91a6f20cfd256e74b930e72d2e0c2460, type: 3}
      propertyPath: m_Name
      value: Piece (15)
      objectReference: {fileID: 0}
    - target: {fileID: 5867689244054825068, guid: 91a6f20cfd256e74b930e72d2e0c2460, type: 3}
      propertyPath: m_RootOrder
      value: 12
      objectReference: {fileID: 0}
    - target: {fileID: 5867689244054825068, guid: 91a6f20cfd256e74b930e72d2e0c2460, type: 3}
      propertyPath: m_LocalPosition.x
      value: -1.14
      objectReference: {fileID: 0}
    - target: {fileID: 5867689244054825068, guid: 91a6f20cfd256e74b930e72d2e0c2460, type: 3}
      propertyPath: m_LocalPosition.y
      value: 452.15
      objectReference: {fileID: 0}
    - target: {fileID: 5867689244054825068, guid: 91a6f20cfd256e74b930e72d2e0c2460, type: 3}
      propertyPath: m_LocalPosition.z
      value: 1.11
      objectReference: {fileID: 0}
    - target: {fileID: 5867689244054825068, guid: 91a6f20cfd256e74b930e72d2e0c2460, type: 3}
      propertyPath: m_LocalRotation.w
      value: 1
      objectReference: {fileID: 0}
    - target: {fileID: 5867689244054825068, guid: 91a6f20cfd256e74b930e72d2e0c2460, type: 3}
      propertyPath: m_LocalRotation.x
      value: -0
      objectReference: {fileID: 0}
    - target: {fileID: 5867689244054825068, guid: 91a6f20cfd256e74b930e72d2e0c2460, type: 3}
      propertyPath: m_LocalRotation.y
      value: -0
      objectReference: {fileID: 0}
    - target: {fileID: 5867689244054825068, guid: 91a6f20cfd256e74b930e72d2e0c2460, type: 3}
      propertyPath: m_LocalRotation.z
      value: -0
      objectReference: {fileID: 0}
    - target: {fileID: 5867689244054825068, guid: 91a6f20cfd256e74b930e72d2e0c2460, type: 3}
      propertyPath: m_LocalEulerAnglesHint.x
      value: 0
      objectReference: {fileID: 0}
    - target: {fileID: 5867689244054825068, guid: 91a6f20cfd256e74b930e72d2e0c2460, type: 3}
      propertyPath: m_LocalEulerAnglesHint.y
      value: 0
      objectReference: {fileID: 0}
    - target: {fileID: 5867689244054825068, guid: 91a6f20cfd256e74b930e72d2e0c2460, type: 3}
      propertyPath: m_LocalEulerAnglesHint.z
      value: 0
      objectReference: {fileID: 0}
    m_RemovedComponents: []
  m_SourcePrefab: {fileID: 100100000, guid: 91a6f20cfd256e74b930e72d2e0c2460, type: 3}
--- !u!4 &1048282135 stripped
Transform:
  m_CorrespondingSourceObject: {fileID: 5867689244054825068, guid: 91a6f20cfd256e74b930e72d2e0c2460, type: 3}
  m_PrefabInstance: {fileID: 1048282134}
  m_PrefabAsset: {fileID: 0}
--- !u!1001 &1105185374
PrefabInstance:
  m_ObjectHideFlags: 0
  serializedVersion: 2
  m_Modification:
    m_TransformParent: {fileID: 2018405992}
    m_Modifications:
    - target: {fileID: 5867689244054825064, guid: 91a6f20cfd256e74b930e72d2e0c2460, type: 3}
      propertyPath: m_Name
      value: Piece (19)
      objectReference: {fileID: 0}
    - target: {fileID: 5867689244054825068, guid: 91a6f20cfd256e74b930e72d2e0c2460, type: 3}
      propertyPath: m_RootOrder
      value: 25
      objectReference: {fileID: 0}
    - target: {fileID: 5867689244054825068, guid: 91a6f20cfd256e74b930e72d2e0c2460, type: 3}
      propertyPath: m_LocalPosition.x
      value: -1.14
      objectReference: {fileID: 0}
    - target: {fileID: 5867689244054825068, guid: 91a6f20cfd256e74b930e72d2e0c2460, type: 3}
      propertyPath: m_LocalPosition.y
      value: 453.24
      objectReference: {fileID: 0}
    - target: {fileID: 5867689244054825068, guid: 91a6f20cfd256e74b930e72d2e0c2460, type: 3}
      propertyPath: m_LocalPosition.z
      value: 2.23
      objectReference: {fileID: 0}
    - target: {fileID: 5867689244054825068, guid: 91a6f20cfd256e74b930e72d2e0c2460, type: 3}
      propertyPath: m_LocalRotation.w
      value: 1
      objectReference: {fileID: 0}
    - target: {fileID: 5867689244054825068, guid: 91a6f20cfd256e74b930e72d2e0c2460, type: 3}
      propertyPath: m_LocalRotation.x
      value: -0
      objectReference: {fileID: 0}
    - target: {fileID: 5867689244054825068, guid: 91a6f20cfd256e74b930e72d2e0c2460, type: 3}
      propertyPath: m_LocalRotation.y
      value: -0
      objectReference: {fileID: 0}
    - target: {fileID: 5867689244054825068, guid: 91a6f20cfd256e74b930e72d2e0c2460, type: 3}
      propertyPath: m_LocalRotation.z
      value: -0
      objectReference: {fileID: 0}
    - target: {fileID: 5867689244054825068, guid: 91a6f20cfd256e74b930e72d2e0c2460, type: 3}
      propertyPath: m_LocalEulerAnglesHint.x
      value: 0
      objectReference: {fileID: 0}
    - target: {fileID: 5867689244054825068, guid: 91a6f20cfd256e74b930e72d2e0c2460, type: 3}
      propertyPath: m_LocalEulerAnglesHint.y
      value: 0
      objectReference: {fileID: 0}
    - target: {fileID: 5867689244054825068, guid: 91a6f20cfd256e74b930e72d2e0c2460, type: 3}
      propertyPath: m_LocalEulerAnglesHint.z
      value: 0
      objectReference: {fileID: 0}
    m_RemovedComponents: []
  m_SourcePrefab: {fileID: 100100000, guid: 91a6f20cfd256e74b930e72d2e0c2460, type: 3}
--- !u!4 &1105185375 stripped
Transform:
  m_CorrespondingSourceObject: {fileID: 5867689244054825068, guid: 91a6f20cfd256e74b930e72d2e0c2460, type: 3}
  m_PrefabInstance: {fileID: 1105185374}
  m_PrefabAsset: {fileID: 0}
--- !u!1001 &1370455694
PrefabInstance:
  m_ObjectHideFlags: 0
  serializedVersion: 2
  m_Modification:
    m_TransformParent: {fileID: 2018405992}
    m_Modifications:
    - target: {fileID: 5867689244054825064, guid: 91a6f20cfd256e74b930e72d2e0c2460, type: 3}
      propertyPath: m_Name
      value: Piece (12)
      objectReference: {fileID: 0}
    - target: {fileID: 5867689244054825068, guid: 91a6f20cfd256e74b930e72d2e0c2460, type: 3}
      propertyPath: m_RootOrder
      value: 9
      objectReference: {fileID: 0}
    - target: {fileID: 5867689244054825068, guid: 91a6f20cfd256e74b930e72d2e0c2460, type: 3}
      propertyPath: m_LocalPosition.x
      value: 0
      objectReference: {fileID: 0}
    - target: {fileID: 5867689244054825068, guid: 91a6f20cfd256e74b930e72d2e0c2460, type: 3}
      propertyPath: m_LocalPosition.y
      value: 452.15
      objectReference: {fileID: 0}
    - target: {fileID: 5867689244054825068, guid: 91a6f20cfd256e74b930e72d2e0c2460, type: 3}
      propertyPath: m_LocalPosition.z
      value: 0
      objectReference: {fileID: 0}
    - target: {fileID: 5867689244054825068, guid: 91a6f20cfd256e74b930e72d2e0c2460, type: 3}
      propertyPath: m_LocalRotation.w
      value: 1
      objectReference: {fileID: 0}
    - target: {fileID: 5867689244054825068, guid: 91a6f20cfd256e74b930e72d2e0c2460, type: 3}
      propertyPath: m_LocalRotation.x
      value: -0
      objectReference: {fileID: 0}
    - target: {fileID: 5867689244054825068, guid: 91a6f20cfd256e74b930e72d2e0c2460, type: 3}
      propertyPath: m_LocalRotation.y
      value: -0
      objectReference: {fileID: 0}
    - target: {fileID: 5867689244054825068, guid: 91a6f20cfd256e74b930e72d2e0c2460, type: 3}
      propertyPath: m_LocalRotation.z
      value: -0
      objectReference: {fileID: 0}
    - target: {fileID: 5867689244054825068, guid: 91a6f20cfd256e74b930e72d2e0c2460, type: 3}
      propertyPath: m_LocalEulerAnglesHint.x
      value: 0
      objectReference: {fileID: 0}
    - target: {fileID: 5867689244054825068, guid: 91a6f20cfd256e74b930e72d2e0c2460, type: 3}
      propertyPath: m_LocalEulerAnglesHint.y
      value: 0
      objectReference: {fileID: 0}
    - target: {fileID: 5867689244054825068, guid: 91a6f20cfd256e74b930e72d2e0c2460, type: 3}
      propertyPath: m_LocalEulerAnglesHint.z
      value: 0
      objectReference: {fileID: 0}
    m_RemovedComponents: []
  m_SourcePrefab: {fileID: 100100000, guid: 91a6f20cfd256e74b930e72d2e0c2460, type: 3}
--- !u!4 &1370455695 stripped
Transform:
  m_CorrespondingSourceObject: {fileID: 5867689244054825068, guid: 91a6f20cfd256e74b930e72d2e0c2460, type: 3}
  m_PrefabInstance: {fileID: 1370455694}
  m_PrefabAsset: {fileID: 0}
--- !u!1001 &1372422084
PrefabInstance:
  m_ObjectHideFlags: 0
  serializedVersion: 2
  m_Modification:
    m_TransformParent: {fileID: 2018405992}
    m_Modifications:
    - target: {fileID: 5867689244054825064, guid: 91a6f20cfd256e74b930e72d2e0c2460, type: 3}
      propertyPath: m_Name
      value: Piece (21)
      objectReference: {fileID: 0}
    - target: {fileID: 5867689244054825068, guid: 91a6f20cfd256e74b930e72d2e0c2460, type: 3}
      propertyPath: m_RootOrder
      value: 18
      objectReference: {fileID: 0}
    - target: {fileID: 5867689244054825068, guid: 91a6f20cfd256e74b930e72d2e0c2460, type: 3}
      propertyPath: m_LocalPosition.x
      value: 1.14
      objectReference: {fileID: 0}
    - target: {fileID: 5867689244054825068, guid: 91a6f20cfd256e74b930e72d2e0c2460, type: 3}
      propertyPath: m_LocalPosition.y
      value: 453.24
      objectReference: {fileID: 0}
    - target: {fileID: 5867689244054825068, guid: 91a6f20cfd256e74b930e72d2e0c2460, type: 3}
      propertyPath: m_LocalPosition.z
      value: 0
      objectReference: {fileID: 0}
    - target: {fileID: 5867689244054825068, guid: 91a6f20cfd256e74b930e72d2e0c2460, type: 3}
      propertyPath: m_LocalRotation.w
      value: 1
      objectReference: {fileID: 0}
    - target: {fileID: 5867689244054825068, guid: 91a6f20cfd256e74b930e72d2e0c2460, type: 3}
      propertyPath: m_LocalRotation.x
      value: -0
      objectReference: {fileID: 0}
    - target: {fileID: 5867689244054825068, guid: 91a6f20cfd256e74b930e72d2e0c2460, type: 3}
      propertyPath: m_LocalRotation.y
      value: -0
      objectReference: {fileID: 0}
    - target: {fileID: 5867689244054825068, guid: 91a6f20cfd256e74b930e72d2e0c2460, type: 3}
      propertyPath: m_LocalRotation.z
      value: -0
      objectReference: {fileID: 0}
    - target: {fileID: 5867689244054825068, guid: 91a6f20cfd256e74b930e72d2e0c2460, type: 3}
      propertyPath: m_LocalEulerAnglesHint.x
      value: 0
      objectReference: {fileID: 0}
    - target: {fileID: 5867689244054825068, guid: 91a6f20cfd256e74b930e72d2e0c2460, type: 3}
      propertyPath: m_LocalEulerAnglesHint.y
      value: 0
      objectReference: {fileID: 0}
    - target: {fileID: 5867689244054825068, guid: 91a6f20cfd256e74b930e72d2e0c2460, type: 3}
      propertyPath: m_LocalEulerAnglesHint.z
      value: 0
      objectReference: {fileID: 0}
    m_RemovedComponents: []
  m_SourcePrefab: {fileID: 100100000, guid: 91a6f20cfd256e74b930e72d2e0c2460, type: 3}
--- !u!4 &1372422085 stripped
Transform:
  m_CorrespondingSourceObject: {fileID: 5867689244054825068, guid: 91a6f20cfd256e74b930e72d2e0c2460, type: 3}
  m_PrefabInstance: {fileID: 1372422084}
  m_PrefabAsset: {fileID: 0}
--- !u!1001 &1385075639
PrefabInstance:
  m_ObjectHideFlags: 0
  serializedVersion: 2
  m_Modification:
    m_TransformParent: {fileID: 2018405992}
    m_Modifications:
    - target: {fileID: 5867689244054825064, guid: 91a6f20cfd256e74b930e72d2e0c2460, type: 3}
      propertyPath: m_Name
      value: Piece (9)
      objectReference: {fileID: 0}
    - target: {fileID: 5867689244054825068, guid: 91a6f20cfd256e74b930e72d2e0c2460, type: 3}
      propertyPath: m_RootOrder
      value: 22
      objectReference: {fileID: 0}
    - target: {fileID: 5867689244054825068, guid: 91a6f20cfd256e74b930e72d2e0c2460, type: 3}
      propertyPath: m_LocalPosition.x
      value: 0
      objectReference: {fileID: 0}
    - target: {fileID: 5867689244054825068, guid: 91a6f20cfd256e74b930e72d2e0c2460, type: 3}
      propertyPath: m_LocalPosition.y
      value: 453.24
      objectReference: {fileID: 0}
    - target: {fileID: 5867689244054825068, guid: 91a6f20cfd256e74b930e72d2e0c2460, type: 3}
      propertyPath: m_LocalPosition.z
      value: 1.11
      objectReference: {fileID: 0}
    - target: {fileID: 5867689244054825068, guid: 91a6f20cfd256e74b930e72d2e0c2460, type: 3}
      propertyPath: m_LocalRotation.w
      value: 1
      objectReference: {fileID: 0}
    - target: {fileID: 5867689244054825068, guid: 91a6f20cfd256e74b930e72d2e0c2460, type: 3}
      propertyPath: m_LocalRotation.x
      value: -0
      objectReference: {fileID: 0}
    - target: {fileID: 5867689244054825068, guid: 91a6f20cfd256e74b930e72d2e0c2460, type: 3}
      propertyPath: m_LocalRotation.y
      value: -0
      objectReference: {fileID: 0}
    - target: {fileID: 5867689244054825068, guid: 91a6f20cfd256e74b930e72d2e0c2460, type: 3}
      propertyPath: m_LocalRotation.z
      value: -0
      objectReference: {fileID: 0}
    - target: {fileID: 5867689244054825068, guid: 91a6f20cfd256e74b930e72d2e0c2460, type: 3}
      propertyPath: m_LocalEulerAnglesHint.x
      value: 0
      objectReference: {fileID: 0}
    - target: {fileID: 5867689244054825068, guid: 91a6f20cfd256e74b930e72d2e0c2460, type: 3}
      propertyPath: m_LocalEulerAnglesHint.y
      value: 0
      objectReference: {fileID: 0}
    - target: {fileID: 5867689244054825068, guid: 91a6f20cfd256e74b930e72d2e0c2460, type: 3}
      propertyPath: m_LocalEulerAnglesHint.z
      value: 0
      objectReference: {fileID: 0}
    m_RemovedComponents: []
  m_SourcePrefab: {fileID: 100100000, guid: 91a6f20cfd256e74b930e72d2e0c2460, type: 3}
--- !u!4 &1385075640 stripped
Transform:
  m_CorrespondingSourceObject: {fileID: 5867689244054825068, guid: 91a6f20cfd256e74b930e72d2e0c2460, type: 3}
  m_PrefabInstance: {fileID: 1385075639}
  m_PrefabAsset: {fileID: 0}
--- !u!1 &1471590119
GameObject:
  m_ObjectHideFlags: 0
  m_CorrespondingSourceObject: {fileID: 0}
  m_PrefabInstance: {fileID: 0}
  m_PrefabAsset: {fileID: 0}
  serializedVersion: 6
  m_Component:
  - component: {fileID: 1471590121}
  - component: {fileID: 1471590120}
  m_Layer: 0
  m_Name: Directional Light
  m_TagString: Untagged
  m_Icon: {fileID: 0}
  m_NavMeshLayer: 0
  m_StaticEditorFlags: 0
  m_IsActive: 1
--- !u!108 &1471590120
Light:
  m_ObjectHideFlags: 0
  m_CorrespondingSourceObject: {fileID: 0}
  m_PrefabInstance: {fileID: 0}
  m_PrefabAsset: {fileID: 0}
  m_GameObject: {fileID: 1471590119}
  m_Enabled: 1
  serializedVersion: 10
  m_Type: 1
  m_Shape: 0
  m_Color: {r: 1, g: 0.95686275, b: 0.8392157, a: 1}
  m_Intensity: 1
  m_Range: 10
  m_SpotAngle: 30
  m_InnerSpotAngle: 21.80208
  m_CookieSize: 10
  m_Shadows:
    m_Type: 2
    m_Resolution: -1
    m_CustomResolution: -1
    m_Strength: 1
    m_Bias: 0.05
    m_NormalBias: 0.4
    m_NearPlane: 0.2
    m_CullingMatrixOverride:
      e00: 1
      e01: 0
      e02: 0
      e03: 0
      e10: 0
      e11: 1
      e12: 0
      e13: 0
      e20: 0
      e21: 0
      e22: 1
      e23: 0
      e30: 0
      e31: 0
      e32: 0
      e33: 1
    m_UseCullingMatrixOverride: 0
  m_Cookie: {fileID: 0}
  m_DrawHalo: 0
  m_Flare: {fileID: 0}
  m_RenderMode: 0
  m_CullingMask:
    serializedVersion: 2
    m_Bits: 4294967295
  m_RenderingLayerMask: 1
  m_Lightmapping: 4
  m_LightShadowCasterMode: 0
  m_AreaSize: {x: 1, y: 1}
  m_BounceIntensity: 1
  m_ColorTemperature: 6570
  m_UseColorTemperature: 0
  m_BoundingSphereOverride: {x: 0, y: 0, z: 0, w: 0}
  m_UseBoundingSphereOverride: 0
  m_UseViewFrustumForShadowCasterCull: 1
  m_ShadowRadius: 0
  m_ShadowAngle: 0
--- !u!4 &1471590121
Transform:
  m_ObjectHideFlags: 0
  m_CorrespondingSourceObject: {fileID: 0}
  m_PrefabInstance: {fileID: 0}
  m_PrefabAsset: {fileID: 0}
  m_GameObject: {fileID: 1471590119}
  m_LocalRotation: {x: 0.40821788, y: -0.23456968, z: 0.10938163, w: 0.8754261}
  m_LocalPosition: {x: 0, y: 3, z: 0}
  m_LocalScale: {x: 1, y: 1, z: 1}
  m_Children: []
  m_Father: {fileID: 0}
  m_RootOrder: 1
  m_LocalEulerAnglesHint: {x: 50, y: -30, z: 0}
--- !u!1001 &1588901828
PrefabInstance:
  m_ObjectHideFlags: 0
  serializedVersion: 2
  m_Modification:
    m_TransformParent: {fileID: 2018405992}
    m_Modifications:
    - target: {fileID: 5867689244054825064, guid: 91a6f20cfd256e74b930e72d2e0c2460, type: 3}
      propertyPath: m_Name
      value: Piece (22)
      objectReference: {fileID: 0}
    - target: {fileID: 5867689244054825068, guid: 91a6f20cfd256e74b930e72d2e0c2460, type: 3}
      propertyPath: m_RootOrder
      value: 19
      objectReference: {fileID: 0}
    - target: {fileID: 5867689244054825068, guid: 91a6f20cfd256e74b930e72d2e0c2460, type: 3}
      propertyPath: m_LocalPosition.x
      value: -1.14
      objectReference: {fileID: 0}
    - target: {fileID: 5867689244054825068, guid: 91a6f20cfd256e74b930e72d2e0c2460, type: 3}
      propertyPath: m_LocalPosition.y
      value: 453.24
      objectReference: {fileID: 0}
    - target: {fileID: 5867689244054825068, guid: 91a6f20cfd256e74b930e72d2e0c2460, type: 3}
      propertyPath: m_LocalPosition.z
      value: 0
      objectReference: {fileID: 0}
    - target: {fileID: 5867689244054825068, guid: 91a6f20cfd256e74b930e72d2e0c2460, type: 3}
      propertyPath: m_LocalRotation.w
      value: 1
      objectReference: {fileID: 0}
    - target: {fileID: 5867689244054825068, guid: 91a6f20cfd256e74b930e72d2e0c2460, type: 3}
      propertyPath: m_LocalRotation.x
      value: -0
      objectReference: {fileID: 0}
    - target: {fileID: 5867689244054825068, guid: 91a6f20cfd256e74b930e72d2e0c2460, type: 3}
      propertyPath: m_LocalRotation.y
      value: -0
      objectReference: {fileID: 0}
    - target: {fileID: 5867689244054825068, guid: 91a6f20cfd256e74b930e72d2e0c2460, type: 3}
      propertyPath: m_LocalRotation.z
      value: -0
      objectReference: {fileID: 0}
    - target: {fileID: 5867689244054825068, guid: 91a6f20cfd256e74b930e72d2e0c2460, type: 3}
      propertyPath: m_LocalEulerAnglesHint.x
      value: 0
      objectReference: {fileID: 0}
    - target: {fileID: 5867689244054825068, guid: 91a6f20cfd256e74b930e72d2e0c2460, type: 3}
      propertyPath: m_LocalEulerAnglesHint.y
      value: 0
      objectReference: {fileID: 0}
    - target: {fileID: 5867689244054825068, guid: 91a6f20cfd256e74b930e72d2e0c2460, type: 3}
      propertyPath: m_LocalEulerAnglesHint.z
      value: 0
      objectReference: {fileID: 0}
    m_RemovedComponents: []
  m_SourcePrefab: {fileID: 100100000, guid: 91a6f20cfd256e74b930e72d2e0c2460, type: 3}
--- !u!4 &1588901829 stripped
Transform:
  m_CorrespondingSourceObject: {fileID: 5867689244054825068, guid: 91a6f20cfd256e74b930e72d2e0c2460, type: 3}
  m_PrefabInstance: {fileID: 1588901828}
  m_PrefabAsset: {fileID: 0}
--- !u!1001 &1646041656
PrefabInstance:
  m_ObjectHideFlags: 0
  serializedVersion: 2
  m_Modification:
    m_TransformParent: {fileID: 2018405992}
    m_Modifications:
    - target: {fileID: 5867689244054825064, guid: 91a6f20cfd256e74b930e72d2e0c2460, type: 3}
      propertyPath: m_Name
      value: Piece (5)
      objectReference: {fileID: 0}
    - target: {fileID: 5867689244054825068, guid: 91a6f20cfd256e74b930e72d2e0c2460, type: 3}
      propertyPath: m_RootOrder
      value: 4
      objectReference: {fileID: 0}
    - target: {fileID: 5867689244054825068, guid: 91a6f20cfd256e74b930e72d2e0c2460, type: 3}
      propertyPath: m_LocalPosition.x
      value: 1.14
      objectReference: {fileID: 0}
    - target: {fileID: 5867689244054825068, guid: 91a6f20cfd256e74b930e72d2e0c2460, type: 3}
      propertyPath: m_LocalPosition.y
      value: 451
      objectReference: {fileID: 0}
    - target: {fileID: 5867689244054825068, guid: 91a6f20cfd256e74b930e72d2e0c2460, type: 3}
      propertyPath: m_LocalPosition.z
      value: 1.11
      objectReference: {fileID: 0}
    - target: {fileID: 5867689244054825068, guid: 91a6f20cfd256e74b930e72d2e0c2460, type: 3}
      propertyPath: m_LocalRotation.w
      value: 1
      objectReference: {fileID: 0}
    - target: {fileID: 5867689244054825068, guid: 91a6f20cfd256e74b930e72d2e0c2460, type: 3}
      propertyPath: m_LocalRotation.x
      value: -0
      objectReference: {fileID: 0}
    - target: {fileID: 5867689244054825068, guid: 91a6f20cfd256e74b930e72d2e0c2460, type: 3}
      propertyPath: m_LocalRotation.y
      value: -0
      objectReference: {fileID: 0}
    - target: {fileID: 5867689244054825068, guid: 91a6f20cfd256e74b930e72d2e0c2460, type: 3}
      propertyPath: m_LocalRotation.z
      value: -0
      objectReference: {fileID: 0}
    - target: {fileID: 5867689244054825068, guid: 91a6f20cfd256e74b930e72d2e0c2460, type: 3}
      propertyPath: m_LocalEulerAnglesHint.x
      value: 0
      objectReference: {fileID: 0}
    - target: {fileID: 5867689244054825068, guid: 91a6f20cfd256e74b930e72d2e0c2460, type: 3}
      propertyPath: m_LocalEulerAnglesHint.y
      value: 0
      objectReference: {fileID: 0}
    - target: {fileID: 5867689244054825068, guid: 91a6f20cfd256e74b930e72d2e0c2460, type: 3}
      propertyPath: m_LocalEulerAnglesHint.z
      value: 0
      objectReference: {fileID: 0}
    m_RemovedComponents: []
  m_SourcePrefab: {fileID: 100100000, guid: 91a6f20cfd256e74b930e72d2e0c2460, type: 3}
--- !u!4 &1646041657 stripped
Transform:
  m_CorrespondingSourceObject: {fileID: 5867689244054825068, guid: 91a6f20cfd256e74b930e72d2e0c2460, type: 3}
  m_PrefabInstance: {fileID: 1646041656}
  m_PrefabAsset: {fileID: 0}
--- !u!1001 &1652684314
PrefabInstance:
  m_ObjectHideFlags: 0
  serializedVersion: 2
  m_Modification:
    m_TransformParent: {fileID: 2018405992}
    m_Modifications:
    - target: {fileID: 5867689244054825064, guid: 91a6f20cfd256e74b930e72d2e0c2460, type: 3}
      propertyPath: m_Name
      value: Piece (3)
      objectReference: {fileID: 0}
    - target: {fileID: 5867689244054825068, guid: 91a6f20cfd256e74b930e72d2e0c2460, type: 3}
      propertyPath: m_RootOrder
      value: 5
      objectReference: {fileID: 0}
    - target: {fileID: 5867689244054825068, guid: 91a6f20cfd256e74b930e72d2e0c2460, type: 3}
      propertyPath: m_LocalPosition.x
      value: -1.14
      objectReference: {fileID: 0}
    - target: {fileID: 5867689244054825068, guid: 91a6f20cfd256e74b930e72d2e0c2460, type: 3}
      propertyPath: m_LocalPosition.y
      value: 451
      objectReference: {fileID: 0}
    - target: {fileID: 5867689244054825068, guid: 91a6f20cfd256e74b930e72d2e0c2460, type: 3}
      propertyPath: m_LocalPosition.z
      value: 1.11
      objectReference: {fileID: 0}
    - target: {fileID: 5867689244054825068, guid: 91a6f20cfd256e74b930e72d2e0c2460, type: 3}
      propertyPath: m_LocalRotation.w
      value: 1
      objectReference: {fileID: 0}
    - target: {fileID: 5867689244054825068, guid: 91a6f20cfd256e74b930e72d2e0c2460, type: 3}
      propertyPath: m_LocalRotation.x
      value: -0
      objectReference: {fileID: 0}
    - target: {fileID: 5867689244054825068, guid: 91a6f20cfd256e74b930e72d2e0c2460, type: 3}
      propertyPath: m_LocalRotation.y
      value: -0
      objectReference: {fileID: 0}
    - target: {fileID: 5867689244054825068, guid: 91a6f20cfd256e74b930e72d2e0c2460, type: 3}
      propertyPath: m_LocalRotation.z
      value: -0
      objectReference: {fileID: 0}
    - target: {fileID: 5867689244054825068, guid: 91a6f20cfd256e74b930e72d2e0c2460, type: 3}
      propertyPath: m_LocalEulerAnglesHint.x
      value: 0
      objectReference: {fileID: 0}
    - target: {fileID: 5867689244054825068, guid: 91a6f20cfd256e74b930e72d2e0c2460, type: 3}
      propertyPath: m_LocalEulerAnglesHint.y
      value: 0
      objectReference: {fileID: 0}
    - target: {fileID: 5867689244054825068, guid: 91a6f20cfd256e74b930e72d2e0c2460, type: 3}
      propertyPath: m_LocalEulerAnglesHint.z
      value: 0
      objectReference: {fileID: 0}
    m_RemovedComponents: []
  m_SourcePrefab: {fileID: 100100000, guid: 91a6f20cfd256e74b930e72d2e0c2460, type: 3}
--- !u!4 &1652684315 stripped
Transform:
  m_CorrespondingSourceObject: {fileID: 5867689244054825068, guid: 91a6f20cfd256e74b930e72d2e0c2460, type: 3}
  m_PrefabInstance: {fileID: 1652684314}
  m_PrefabAsset: {fileID: 0}
--- !u!1001 &1779858898
PrefabInstance:
  m_ObjectHideFlags: 0
  serializedVersion: 2
  m_Modification:
    m_TransformParent: {fileID: 2018405992}
    m_Modifications:
    - target: {fileID: 5867689244054825064, guid: 91a6f20cfd256e74b930e72d2e0c2460, type: 3}
      propertyPath: m_Name
      value: Piece (13)
      objectReference: {fileID: 0}
    - target: {fileID: 5867689244054825068, guid: 91a6f20cfd256e74b930e72d2e0c2460, type: 3}
      propertyPath: m_RootOrder
      value: 10
      objectReference: {fileID: 0}
    - target: {fileID: 5867689244054825068, guid: 91a6f20cfd256e74b930e72d2e0c2460, type: 3}
      propertyPath: m_LocalPosition.x
      value: 1.14
      objectReference: {fileID: 0}
    - target: {fileID: 5867689244054825068, guid: 91a6f20cfd256e74b930e72d2e0c2460, type: 3}
      propertyPath: m_LocalPosition.y
      value: 452.15
      objectReference: {fileID: 0}
    - target: {fileID: 5867689244054825068, guid: 91a6f20cfd256e74b930e72d2e0c2460, type: 3}
      propertyPath: m_LocalPosition.z
      value: 0
      objectReference: {fileID: 0}
    - target: {fileID: 5867689244054825068, guid: 91a6f20cfd256e74b930e72d2e0c2460, type: 3}
      propertyPath: m_LocalRotation.w
      value: 1
      objectReference: {fileID: 0}
    - target: {fileID: 5867689244054825068, guid: 91a6f20cfd256e74b930e72d2e0c2460, type: 3}
      propertyPath: m_LocalRotation.x
      value: -0
      objectReference: {fileID: 0}
    - target: {fileID: 5867689244054825068, guid: 91a6f20cfd256e74b930e72d2e0c2460, type: 3}
      propertyPath: m_LocalRotation.y
      value: -0
      objectReference: {fileID: 0}
    - target: {fileID: 5867689244054825068, guid: 91a6f20cfd256e74b930e72d2e0c2460, type: 3}
      propertyPath: m_LocalRotation.z
      value: -0
      objectReference: {fileID: 0}
    - target: {fileID: 5867689244054825068, guid: 91a6f20cfd256e74b930e72d2e0c2460, type: 3}
      propertyPath: m_LocalEulerAnglesHint.x
      value: 0
      objectReference: {fileID: 0}
    - target: {fileID: 5867689244054825068, guid: 91a6f20cfd256e74b930e72d2e0c2460, type: 3}
      propertyPath: m_LocalEulerAnglesHint.y
      value: 0
      objectReference: {fileID: 0}
    - target: {fileID: 5867689244054825068, guid: 91a6f20cfd256e74b930e72d2e0c2460, type: 3}
      propertyPath: m_LocalEulerAnglesHint.z
      value: 0
      objectReference: {fileID: 0}
    m_RemovedComponents: []
  m_SourcePrefab: {fileID: 100100000, guid: 91a6f20cfd256e74b930e72d2e0c2460, type: 3}
--- !u!4 &1779858899 stripped
Transform:
  m_CorrespondingSourceObject: {fileID: 5867689244054825068, guid: 91a6f20cfd256e74b930e72d2e0c2460, type: 3}
  m_PrefabInstance: {fileID: 1779858898}
  m_PrefabAsset: {fileID: 0}
--- !u!1001 &1782679750
PrefabInstance:
  m_ObjectHideFlags: 0
  serializedVersion: 2
  m_Modification:
    m_TransformParent: {fileID: 2018405992}
    m_Modifications:
    - target: {fileID: 5867689244054825064, guid: 91a6f20cfd256e74b930e72d2e0c2460, type: 3}
      propertyPath: m_Name
      value: Piece (17)
      objectReference: {fileID: 0}
    - target: {fileID: 5867689244054825068, guid: 91a6f20cfd256e74b930e72d2e0c2460, type: 3}
      propertyPath: m_RootOrder
      value: 14
      objectReference: {fileID: 0}
    - target: {fileID: 5867689244054825068, guid: 91a6f20cfd256e74b930e72d2e0c2460, type: 3}
      propertyPath: m_LocalPosition.x
      value: 0
      objectReference: {fileID: 0}
    - target: {fileID: 5867689244054825068, guid: 91a6f20cfd256e74b930e72d2e0c2460, type: 3}
      propertyPath: m_LocalPosition.y
      value: 452.15
      objectReference: {fileID: 0}
    - target: {fileID: 5867689244054825068, guid: 91a6f20cfd256e74b930e72d2e0c2460, type: 3}
      propertyPath: m_LocalPosition.z
      value: 2.23
      objectReference: {fileID: 0}
    - target: {fileID: 5867689244054825068, guid: 91a6f20cfd256e74b930e72d2e0c2460, type: 3}
      propertyPath: m_LocalRotation.w
      value: 1
      objectReference: {fileID: 0}
    - target: {fileID: 5867689244054825068, guid: 91a6f20cfd256e74b930e72d2e0c2460, type: 3}
      propertyPath: m_LocalRotation.x
      value: -0
      objectReference: {fileID: 0}
    - target: {fileID: 5867689244054825068, guid: 91a6f20cfd256e74b930e72d2e0c2460, type: 3}
      propertyPath: m_LocalRotation.y
      value: -0
      objectReference: {fileID: 0}
    - target: {fileID: 5867689244054825068, guid: 91a6f20cfd256e74b930e72d2e0c2460, type: 3}
      propertyPath: m_LocalRotation.z
      value: -0
      objectReference: {fileID: 0}
    - target: {fileID: 5867689244054825068, guid: 91a6f20cfd256e74b930e72d2e0c2460, type: 3}
      propertyPath: m_LocalEulerAnglesHint.x
      value: 0
      objectReference: {fileID: 0}
    - target: {fileID: 5867689244054825068, guid: 91a6f20cfd256e74b930e72d2e0c2460, type: 3}
      propertyPath: m_LocalEulerAnglesHint.y
      value: 0
      objectReference: {fileID: 0}
    - target: {fileID: 5867689244054825068, guid: 91a6f20cfd256e74b930e72d2e0c2460, type: 3}
      propertyPath: m_LocalEulerAnglesHint.z
      value: 0
      objectReference: {fileID: 0}
    m_RemovedComponents: []
  m_SourcePrefab: {fileID: 100100000, guid: 91a6f20cfd256e74b930e72d2e0c2460, type: 3}
--- !u!4 &1782679751 stripped
Transform:
  m_CorrespondingSourceObject: {fileID: 5867689244054825068, guid: 91a6f20cfd256e74b930e72d2e0c2460, type: 3}
  m_PrefabInstance: {fileID: 1782679750}
  m_PrefabAsset: {fileID: 0}
--- !u!1001 &1814100422
PrefabInstance:
  m_ObjectHideFlags: 0
  serializedVersion: 2
  m_Modification:
    m_TransformParent: {fileID: 2018405992}
    m_Modifications:
    - target: {fileID: 5867689244054825064, guid: 91a6f20cfd256e74b930e72d2e0c2460, type: 3}
      propertyPath: m_Name
      value: Piece (11)
      objectReference: {fileID: 0}
    - target: {fileID: 5867689244054825068, guid: 91a6f20cfd256e74b930e72d2e0c2460, type: 3}
      propertyPath: m_RootOrder
      value: 16
      objectReference: {fileID: 0}
    - target: {fileID: 5867689244054825068, guid: 91a6f20cfd256e74b930e72d2e0c2460, type: 3}
      propertyPath: m_LocalPosition.x
      value: -1.14
      objectReference: {fileID: 0}
    - target: {fileID: 5867689244054825068, guid: 91a6f20cfd256e74b930e72d2e0c2460, type: 3}
      propertyPath: m_LocalPosition.y
      value: 452.15
      objectReference: {fileID: 0}
    - target: {fileID: 5867689244054825068, guid: 91a6f20cfd256e74b930e72d2e0c2460, type: 3}
      propertyPath: m_LocalPosition.z
      value: 2.23
      objectReference: {fileID: 0}
    - target: {fileID: 5867689244054825068, guid: 91a6f20cfd256e74b930e72d2e0c2460, type: 3}
      propertyPath: m_LocalRotation.w
      value: 1
      objectReference: {fileID: 0}
    - target: {fileID: 5867689244054825068, guid: 91a6f20cfd256e74b930e72d2e0c2460, type: 3}
      propertyPath: m_LocalRotation.x
      value: -0
      objectReference: {fileID: 0}
    - target: {fileID: 5867689244054825068, guid: 91a6f20cfd256e74b930e72d2e0c2460, type: 3}
      propertyPath: m_LocalRotation.y
      value: -0
      objectReference: {fileID: 0}
    - target: {fileID: 5867689244054825068, guid: 91a6f20cfd256e74b930e72d2e0c2460, type: 3}
      propertyPath: m_LocalRotation.z
      value: -0
      objectReference: {fileID: 0}
    - target: {fileID: 5867689244054825068, guid: 91a6f20cfd256e74b930e72d2e0c2460, type: 3}
      propertyPath: m_LocalEulerAnglesHint.x
      value: 0
      objectReference: {fileID: 0}
    - target: {fileID: 5867689244054825068, guid: 91a6f20cfd256e74b930e72d2e0c2460, type: 3}
      propertyPath: m_LocalEulerAnglesHint.y
      value: 0
      objectReference: {fileID: 0}
    - target: {fileID: 5867689244054825068, guid: 91a6f20cfd256e74b930e72d2e0c2460, type: 3}
      propertyPath: m_LocalEulerAnglesHint.z
      value: 0
      objectReference: {fileID: 0}
    m_RemovedComponents: []
  m_SourcePrefab: {fileID: 100100000, guid: 91a6f20cfd256e74b930e72d2e0c2460, type: 3}
--- !u!4 &1814100423 stripped
Transform:
  m_CorrespondingSourceObject: {fileID: 5867689244054825068, guid: 91a6f20cfd256e74b930e72d2e0c2460, type: 3}
  m_PrefabInstance: {fileID: 1814100422}
  m_PrefabAsset: {fileID: 0}
--- !u!1001 &1861609517
PrefabInstance:
  m_ObjectHideFlags: 0
  serializedVersion: 2
  m_Modification:
    m_TransformParent: {fileID: 2018405992}
    m_Modifications:
    - target: {fileID: 5867689244054825064, guid: 91a6f20cfd256e74b930e72d2e0c2460, type: 3}
      propertyPath: m_Name
      value: Piece (7)
      objectReference: {fileID: 0}
    - target: {fileID: 5867689244054825068, guid: 91a6f20cfd256e74b930e72d2e0c2460, type: 3}
      propertyPath: m_RootOrder
      value: 7
      objectReference: {fileID: 0}
    - target: {fileID: 5867689244054825068, guid: 91a6f20cfd256e74b930e72d2e0c2460, type: 3}
      propertyPath: m_LocalPosition.x
      value: 1.14
      objectReference: {fileID: 0}
    - target: {fileID: 5867689244054825068, guid: 91a6f20cfd256e74b930e72d2e0c2460, type: 3}
      propertyPath: m_LocalPosition.y
      value: 451
      objectReference: {fileID: 0}
    - target: {fileID: 5867689244054825068, guid: 91a6f20cfd256e74b930e72d2e0c2460, type: 3}
      propertyPath: m_LocalPosition.z
      value: 2.23
      objectReference: {fileID: 0}
    - target: {fileID: 5867689244054825068, guid: 91a6f20cfd256e74b930e72d2e0c2460, type: 3}
      propertyPath: m_LocalRotation.w
      value: 1
      objectReference: {fileID: 0}
    - target: {fileID: 5867689244054825068, guid: 91a6f20cfd256e74b930e72d2e0c2460, type: 3}
      propertyPath: m_LocalRotation.x
      value: -0
      objectReference: {fileID: 0}
    - target: {fileID: 5867689244054825068, guid: 91a6f20cfd256e74b930e72d2e0c2460, type: 3}
      propertyPath: m_LocalRotation.y
      value: -0
      objectReference: {fileID: 0}
    - target: {fileID: 5867689244054825068, guid: 91a6f20cfd256e74b930e72d2e0c2460, type: 3}
      propertyPath: m_LocalRotation.z
      value: -0
      objectReference: {fileID: 0}
    - target: {fileID: 5867689244054825068, guid: 91a6f20cfd256e74b930e72d2e0c2460, type: 3}
      propertyPath: m_LocalEulerAnglesHint.x
      value: 0
      objectReference: {fileID: 0}
    - target: {fileID: 5867689244054825068, guid: 91a6f20cfd256e74b930e72d2e0c2460, type: 3}
      propertyPath: m_LocalEulerAnglesHint.y
      value: 0
      objectReference: {fileID: 0}
    - target: {fileID: 5867689244054825068, guid: 91a6f20cfd256e74b930e72d2e0c2460, type: 3}
      propertyPath: m_LocalEulerAnglesHint.z
      value: 0
      objectReference: {fileID: 0}
    m_RemovedComponents: []
  m_SourcePrefab: {fileID: 100100000, guid: 91a6f20cfd256e74b930e72d2e0c2460, type: 3}
--- !u!4 &1861609518 stripped
Transform:
  m_CorrespondingSourceObject: {fileID: 5867689244054825068, guid: 91a6f20cfd256e74b930e72d2e0c2460, type: 3}
  m_PrefabInstance: {fileID: 1861609517}
  m_PrefabAsset: {fileID: 0}
--- !u!1001 &1894438647
PrefabInstance:
  m_ObjectHideFlags: 0
  serializedVersion: 2
  m_Modification:
    m_TransformParent: {fileID: 2018405992}
    m_Modifications:
    - target: {fileID: 5867689244054825064, guid: 91a6f20cfd256e74b930e72d2e0c2460, type: 3}
      propertyPath: m_Name
      value: Piece (2)
      objectReference: {fileID: 0}
    - target: {fileID: 5867689244054825068, guid: 91a6f20cfd256e74b930e72d2e0c2460, type: 3}
      propertyPath: m_RootOrder
      value: 2
      objectReference: {fileID: 0}
    - target: {fileID: 5867689244054825068, guid: 91a6f20cfd256e74b930e72d2e0c2460, type: 3}
      propertyPath: m_LocalPosition.x
      value: -1.14
      objectReference: {fileID: 0}
    - target: {fileID: 5867689244054825068, guid: 91a6f20cfd256e74b930e72d2e0c2460, type: 3}
      propertyPath: m_LocalPosition.y
      value: 451
      objectReference: {fileID: 0}
    - target: {fileID: 5867689244054825068, guid: 91a6f20cfd256e74b930e72d2e0c2460, type: 3}
      propertyPath: m_LocalPosition.z
      value: 0
      objectReference: {fileID: 0}
    - target: {fileID: 5867689244054825068, guid: 91a6f20cfd256e74b930e72d2e0c2460, type: 3}
      propertyPath: m_LocalRotation.w
      value: 1
      objectReference: {fileID: 0}
    - target: {fileID: 5867689244054825068, guid: 91a6f20cfd256e74b930e72d2e0c2460, type: 3}
      propertyPath: m_LocalRotation.x
      value: -0
      objectReference: {fileID: 0}
    - target: {fileID: 5867689244054825068, guid: 91a6f20cfd256e74b930e72d2e0c2460, type: 3}
      propertyPath: m_LocalRotation.y
      value: -0
      objectReference: {fileID: 0}
    - target: {fileID: 5867689244054825068, guid: 91a6f20cfd256e74b930e72d2e0c2460, type: 3}
      propertyPath: m_LocalRotation.z
      value: -0
      objectReference: {fileID: 0}
    - target: {fileID: 5867689244054825068, guid: 91a6f20cfd256e74b930e72d2e0c2460, type: 3}
      propertyPath: m_LocalEulerAnglesHint.x
      value: 0
      objectReference: {fileID: 0}
    - target: {fileID: 5867689244054825068, guid: 91a6f20cfd256e74b930e72d2e0c2460, type: 3}
      propertyPath: m_LocalEulerAnglesHint.y
      value: 0
      objectReference: {fileID: 0}
    - target: {fileID: 5867689244054825068, guid: 91a6f20cfd256e74b930e72d2e0c2460, type: 3}
      propertyPath: m_LocalEulerAnglesHint.z
      value: 0
      objectReference: {fileID: 0}
    m_RemovedComponents: []
  m_SourcePrefab: {fileID: 100100000, guid: 91a6f20cfd256e74b930e72d2e0c2460, type: 3}
--- !u!4 &1894438648 stripped
Transform:
  m_CorrespondingSourceObject: {fileID: 5867689244054825068, guid: 91a6f20cfd256e74b930e72d2e0c2460, type: 3}
  m_PrefabInstance: {fileID: 1894438647}
  m_PrefabAsset: {fileID: 0}
--- !u!1 &2018405991
GameObject:
  m_ObjectHideFlags: 0
  m_CorrespondingSourceObject: {fileID: 0}
  m_PrefabInstance: {fileID: 0}
  m_PrefabAsset: {fileID: 0}
  serializedVersion: 6
  m_Component:
  - component: {fileID: 2018405992}
  m_Layer: 0
  m_Name: Cube
  m_TagString: Untagged
  m_Icon: {fileID: 0}
  m_NavMeshLayer: 0
  m_StaticEditorFlags: 0
  m_IsActive: 1
--- !u!4 &2018405992
Transform:
  m_ObjectHideFlags: 0
  m_CorrespondingSourceObject: {fileID: 0}
  m_PrefabInstance: {fileID: 0}
  m_PrefabAsset: {fileID: 0}
  m_GameObject: {fileID: 2018405991}
  m_LocalRotation: {x: -0, y: -0, z: -0, w: 1}
  m_LocalPosition: {x: 0, y: -451, z: 0}
  m_LocalScale: {x: 1, y: 1, z: 1}
  m_Children:
  - {fileID: 257739766}
  - {fileID: 2103795878}
  - {fileID: 1894438648}
  - {fileID: 168251772}
  - {fileID: 1646041657}
  - {fileID: 1652684315}
  - {fileID: 733316019}
  - {fileID: 1861609518}
  - {fileID: 1044616872}
  - {fileID: 1370455695}
  - {fileID: 1779858899}
  - {fileID: 29356754}
  - {fileID: 1048282135}
  - {fileID: 2080711614}
  - {fileID: 1782679751}
  - {fileID: 462136904}
  - {fileID: 1814100423}
  - {fileID: 1013929076}
  - {fileID: 1372422085}
  - {fileID: 1588901829}
  - {fileID: 566991462}
  - {fileID: 2020411475}
  - {fileID: 1385075640}
  - {fileID: 2145873041}
  - {fileID: 946235620}
  - {fileID: 1105185375}
  m_Father: {fileID: 541803472}
  m_RootOrder: 0
  m_LocalEulerAnglesHint: {x: 0, y: 0, z: 0}
--- !u!1001 &2020411474
PrefabInstance:
  m_ObjectHideFlags: 0
  serializedVersion: 2
  m_Modification:
    m_TransformParent: {fileID: 2018405992}
    m_Modifications:
    - target: {fileID: 5867689244054825064, guid: 91a6f20cfd256e74b930e72d2e0c2460, type: 3}
      propertyPath: m_Name
      value: Piece (18)
      objectReference: {fileID: 0}
    - target: {fileID: 5867689244054825068, guid: 91a6f20cfd256e74b930e72d2e0c2460, type: 3}
      propertyPath: m_RootOrder
      value: 21
      objectReference: {fileID: 0}
    - target: {fileID: 5867689244054825068, guid: 91a6f20cfd256e74b930e72d2e0c2460, type: 3}
      propertyPath: m_LocalPosition.x
      value: 1.14
      objectReference: {fileID: 0}
    - target: {fileID: 5867689244054825068, guid: 91a6f20cfd256e74b930e72d2e0c2460, type: 3}
      propertyPath: m_LocalPosition.y
      value: 453.24
      objectReference: {fileID: 0}
    - target: {fileID: 5867689244054825068, guid: 91a6f20cfd256e74b930e72d2e0c2460, type: 3}
      propertyPath: m_LocalPosition.z
      value: 1.11
      objectReference: {fileID: 0}
    - target: {fileID: 5867689244054825068, guid: 91a6f20cfd256e74b930e72d2e0c2460, type: 3}
      propertyPath: m_LocalRotation.w
      value: 1
      objectReference: {fileID: 0}
    - target: {fileID: 5867689244054825068, guid: 91a6f20cfd256e74b930e72d2e0c2460, type: 3}
      propertyPath: m_LocalRotation.x
      value: -0
      objectReference: {fileID: 0}
    - target: {fileID: 5867689244054825068, guid: 91a6f20cfd256e74b930e72d2e0c2460, type: 3}
      propertyPath: m_LocalRotation.y
      value: -0
      objectReference: {fileID: 0}
    - target: {fileID: 5867689244054825068, guid: 91a6f20cfd256e74b930e72d2e0c2460, type: 3}
      propertyPath: m_LocalRotation.z
      value: -0
      objectReference: {fileID: 0}
    - target: {fileID: 5867689244054825068, guid: 91a6f20cfd256e74b930e72d2e0c2460, type: 3}
      propertyPath: m_LocalEulerAnglesHint.x
      value: 0
      objectReference: {fileID: 0}
    - target: {fileID: 5867689244054825068, guid: 91a6f20cfd256e74b930e72d2e0c2460, type: 3}
      propertyPath: m_LocalEulerAnglesHint.y
      value: 0
      objectReference: {fileID: 0}
    - target: {fileID: 5867689244054825068, guid: 91a6f20cfd256e74b930e72d2e0c2460, type: 3}
      propertyPath: m_LocalEulerAnglesHint.z
      value: 0
      objectReference: {fileID: 0}
    m_RemovedComponents: []
  m_SourcePrefab: {fileID: 100100000, guid: 91a6f20cfd256e74b930e72d2e0c2460, type: 3}
--- !u!4 &2020411475 stripped
Transform:
  m_CorrespondingSourceObject: {fileID: 5867689244054825068, guid: 91a6f20cfd256e74b930e72d2e0c2460, type: 3}
  m_PrefabInstance: {fileID: 2020411474}
  m_PrefabAsset: {fileID: 0}
--- !u!1001 &2080711613
PrefabInstance:
  m_ObjectHideFlags: 0
  serializedVersion: 2
  m_Modification:
    m_TransformParent: {fileID: 2018405992}
    m_Modifications:
    - target: {fileID: 5867689244054825064, guid: 91a6f20cfd256e74b930e72d2e0c2460, type: 3}
      propertyPath: m_Name
      value: Piece (10)
      objectReference: {fileID: 0}
    - target: {fileID: 5867689244054825068, guid: 91a6f20cfd256e74b930e72d2e0c2460, type: 3}
      propertyPath: m_RootOrder
      value: 13
      objectReference: {fileID: 0}
    - target: {fileID: 5867689244054825068, guid: 91a6f20cfd256e74b930e72d2e0c2460, type: 3}
      propertyPath: m_LocalPosition.x
      value: 1.14
      objectReference: {fileID: 0}
    - target: {fileID: 5867689244054825068, guid: 91a6f20cfd256e74b930e72d2e0c2460, type: 3}
      propertyPath: m_LocalPosition.y
      value: 452.15
      objectReference: {fileID: 0}
    - target: {fileID: 5867689244054825068, guid: 91a6f20cfd256e74b930e72d2e0c2460, type: 3}
      propertyPath: m_LocalPosition.z
      value: 1.11
      objectReference: {fileID: 0}
    - target: {fileID: 5867689244054825068, guid: 91a6f20cfd256e74b930e72d2e0c2460, type: 3}
      propertyPath: m_LocalRotation.w
      value: 1
      objectReference: {fileID: 0}
    - target: {fileID: 5867689244054825068, guid: 91a6f20cfd256e74b930e72d2e0c2460, type: 3}
      propertyPath: m_LocalRotation.x
      value: -0
      objectReference: {fileID: 0}
    - target: {fileID: 5867689244054825068, guid: 91a6f20cfd256e74b930e72d2e0c2460, type: 3}
      propertyPath: m_LocalRotation.y
      value: -0
      objectReference: {fileID: 0}
    - target: {fileID: 5867689244054825068, guid: 91a6f20cfd256e74b930e72d2e0c2460, type: 3}
      propertyPath: m_LocalRotation.z
      value: -0
      objectReference: {fileID: 0}
    - target: {fileID: 5867689244054825068, guid: 91a6f20cfd256e74b930e72d2e0c2460, type: 3}
      propertyPath: m_LocalEulerAnglesHint.x
      value: 0
      objectReference: {fileID: 0}
    - target: {fileID: 5867689244054825068, guid: 91a6f20cfd256e74b930e72d2e0c2460, type: 3}
      propertyPath: m_LocalEulerAnglesHint.y
      value: 0
      objectReference: {fileID: 0}
    - target: {fileID: 5867689244054825068, guid: 91a6f20cfd256e74b930e72d2e0c2460, type: 3}
      propertyPath: m_LocalEulerAnglesHint.z
      value: 0
      objectReference: {fileID: 0}
    m_RemovedComponents: []
  m_SourcePrefab: {fileID: 100100000, guid: 91a6f20cfd256e74b930e72d2e0c2460, type: 3}
--- !u!4 &2080711614 stripped
Transform:
  m_CorrespondingSourceObject: {fileID: 5867689244054825068, guid: 91a6f20cfd256e74b930e72d2e0c2460, type: 3}
  m_PrefabInstance: {fileID: 2080711613}
  m_PrefabAsset: {fileID: 0}
--- !u!1001 &2103795877
PrefabInstance:
  m_ObjectHideFlags: 0
  serializedVersion: 2
  m_Modification:
    m_TransformParent: {fileID: 2018405992}
    m_Modifications:
    - target: {fileID: 5867689244054825064, guid: 91a6f20cfd256e74b930e72d2e0c2460, type: 3}
      propertyPath: m_Name
      value: Piece (1)
      objectReference: {fileID: 0}
    - target: {fileID: 5867689244054825068, guid: 91a6f20cfd256e74b930e72d2e0c2460, type: 3}
      propertyPath: m_RootOrder
      value: 1
      objectReference: {fileID: 0}
    - target: {fileID: 5867689244054825068, guid: 91a6f20cfd256e74b930e72d2e0c2460, type: 3}
      propertyPath: m_LocalPosition.x
      value: 1.14
      objectReference: {fileID: 0}
    - target: {fileID: 5867689244054825068, guid: 91a6f20cfd256e74b930e72d2e0c2460, type: 3}
      propertyPath: m_LocalPosition.y
      value: 451
      objectReference: {fileID: 0}
    - target: {fileID: 5867689244054825068, guid: 91a6f20cfd256e74b930e72d2e0c2460, type: 3}
      propertyPath: m_LocalPosition.z
      value: 0
      objectReference: {fileID: 0}
    - target: {fileID: 5867689244054825068, guid: 91a6f20cfd256e74b930e72d2e0c2460, type: 3}
      propertyPath: m_LocalRotation.w
      value: 1
      objectReference: {fileID: 0}
    - target: {fileID: 5867689244054825068, guid: 91a6f20cfd256e74b930e72d2e0c2460, type: 3}
      propertyPath: m_LocalRotation.x
      value: -0
      objectReference: {fileID: 0}
    - target: {fileID: 5867689244054825068, guid: 91a6f20cfd256e74b930e72d2e0c2460, type: 3}
      propertyPath: m_LocalRotation.y
      value: -0
      objectReference: {fileID: 0}
    - target: {fileID: 5867689244054825068, guid: 91a6f20cfd256e74b930e72d2e0c2460, type: 3}
      propertyPath: m_LocalRotation.z
      value: -0
      objectReference: {fileID: 0}
    - target: {fileID: 5867689244054825068, guid: 91a6f20cfd256e74b930e72d2e0c2460, type: 3}
      propertyPath: m_LocalEulerAnglesHint.x
      value: 0
      objectReference: {fileID: 0}
    - target: {fileID: 5867689244054825068, guid: 91a6f20cfd256e74b930e72d2e0c2460, type: 3}
      propertyPath: m_LocalEulerAnglesHint.y
      value: 0
      objectReference: {fileID: 0}
    - target: {fileID: 5867689244054825068, guid: 91a6f20cfd256e74b930e72d2e0c2460, type: 3}
      propertyPath: m_LocalEulerAnglesHint.z
      value: 0
      objectReference: {fileID: 0}
    m_RemovedComponents: []
  m_SourcePrefab: {fileID: 100100000, guid: 91a6f20cfd256e74b930e72d2e0c2460, type: 3}
--- !u!4 &2103795878 stripped
Transform:
  m_CorrespondingSourceObject: {fileID: 5867689244054825068, guid: 91a6f20cfd256e74b930e72d2e0c2460, type: 3}
  m_PrefabInstance: {fileID: 2103795877}
  m_PrefabAsset: {fileID: 0}
--- !u!1001 &2145873040
PrefabInstance:
  m_ObjectHideFlags: 0
  serializedVersion: 2
  m_Modification:
    m_TransformParent: {fileID: 2018405992}
    m_Modifications:
    - target: {fileID: 5867689244054825064, guid: 91a6f20cfd256e74b930e72d2e0c2460, type: 3}
      propertyPath: m_Name
      value: Piece (25)
      objectReference: {fileID: 0}
    - target: {fileID: 5867689244054825068, guid: 91a6f20cfd256e74b930e72d2e0c2460, type: 3}
      propertyPath: m_RootOrder
      value: 23
      objectReference: {fileID: 0}
    - target: {fileID: 5867689244054825068, guid: 91a6f20cfd256e74b930e72d2e0c2460, type: 3}
      propertyPath: m_LocalPosition.x
      value: 0
      objectReference: {fileID: 0}
    - target: {fileID: 5867689244054825068, guid: 91a6f20cfd256e74b930e72d2e0c2460, type: 3}
      propertyPath: m_LocalPosition.y
      value: 453.24
      objectReference: {fileID: 0}
    - target: {fileID: 5867689244054825068, guid: 91a6f20cfd256e74b930e72d2e0c2460, type: 3}
      propertyPath: m_LocalPosition.z
      value: 2.23
      objectReference: {fileID: 0}
    - target: {fileID: 5867689244054825068, guid: 91a6f20cfd256e74b930e72d2e0c2460, type: 3}
      propertyPath: m_LocalRotation.w
      value: 1
      objectReference: {fileID: 0}
    - target: {fileID: 5867689244054825068, guid: 91a6f20cfd256e74b930e72d2e0c2460, type: 3}
      propertyPath: m_LocalRotation.x
      value: -0
      objectReference: {fileID: 0}
    - target: {fileID: 5867689244054825068, guid: 91a6f20cfd256e74b930e72d2e0c2460, type: 3}
      propertyPath: m_LocalRotation.y
      value: -0
      objectReference: {fileID: 0}
    - target: {fileID: 5867689244054825068, guid: 91a6f20cfd256e74b930e72d2e0c2460, type: 3}
      propertyPath: m_LocalRotation.z
      value: -0
      objectReference: {fileID: 0}
    - target: {fileID: 5867689244054825068, guid: 91a6f20cfd256e74b930e72d2e0c2460, type: 3}
      propertyPath: m_LocalEulerAnglesHint.x
      value: 0
      objectReference: {fileID: 0}
    - target: {fileID: 5867689244054825068, guid: 91a6f20cfd256e74b930e72d2e0c2460, type: 3}
      propertyPath: m_LocalEulerAnglesHint.y
      value: 0
      objectReference: {fileID: 0}
    - target: {fileID: 5867689244054825068, guid: 91a6f20cfd256e74b930e72d2e0c2460, type: 3}
      propertyPath: m_LocalEulerAnglesHint.z
      value: 0
      objectReference: {fileID: 0}
    m_RemovedComponents: []
  m_SourcePrefab: {fileID: 100100000, guid: 91a6f20cfd256e74b930e72d2e0c2460, type: 3}
--- !u!4 &2145873041 stripped
Transform:
  m_CorrespondingSourceObject: {fileID: 5867689244054825068, guid: 91a6f20cfd256e74b930e72d2e0c2460, type: 3}
  m_PrefabInstance: {fileID: 2145873040}
  m_PrefabAsset: {fileID: 0}
--- !u!1001 &5867689244169364378
PrefabInstance:
  m_ObjectHideFlags: 0
  serializedVersion: 2
  m_Modification:
    m_TransformParent: {fileID: 2018405992}
    m_Modifications:
    - target: {fileID: 5867689244054825064, guid: 91a6f20cfd256e74b930e72d2e0c2460, type: 3}
      propertyPath: m_Name
      value: Piece
      objectReference: {fileID: 0}
    - target: {fileID: 5867689244054825068, guid: 91a6f20cfd256e74b930e72d2e0c2460, type: 3}
      propertyPath: m_RootOrder
      value: 0
      objectReference: {fileID: 0}
    - target: {fileID: 5867689244054825068, guid: 91a6f20cfd256e74b930e72d2e0c2460, type: 3}
      propertyPath: m_LocalPosition.x
      value: 0
      objectReference: {fileID: 0}
    - target: {fileID: 5867689244054825068, guid: 91a6f20cfd256e74b930e72d2e0c2460, type: 3}
      propertyPath: m_LocalPosition.y
      value: 451
      objectReference: {fileID: 0}
    - target: {fileID: 5867689244054825068, guid: 91a6f20cfd256e74b930e72d2e0c2460, type: 3}
      propertyPath: m_LocalPosition.z
      value: 0
      objectReference: {fileID: 0}
    - target: {fileID: 5867689244054825068, guid: 91a6f20cfd256e74b930e72d2e0c2460, type: 3}
      propertyPath: m_LocalRotation.w
      value: 1
      objectReference: {fileID: 0}
    - target: {fileID: 5867689244054825068, guid: 91a6f20cfd256e74b930e72d2e0c2460, type: 3}
      propertyPath: m_LocalRotation.x
      value: -0
      objectReference: {fileID: 0}
    - target: {fileID: 5867689244054825068, guid: 91a6f20cfd256e74b930e72d2e0c2460, type: 3}
      propertyPath: m_LocalRotation.y
      value: -0
      objectReference: {fileID: 0}
    - target: {fileID: 5867689244054825068, guid: 91a6f20cfd256e74b930e72d2e0c2460, type: 3}
      propertyPath: m_LocalRotation.z
      value: -0
      objectReference: {fileID: 0}
    - target: {fileID: 5867689244054825068, guid: 91a6f20cfd256e74b930e72d2e0c2460, type: 3}
      propertyPath: m_LocalEulerAnglesHint.x
      value: 0
      objectReference: {fileID: 0}
    - target: {fileID: 5867689244054825068, guid: 91a6f20cfd256e74b930e72d2e0c2460, type: 3}
      propertyPath: m_LocalEulerAnglesHint.y
      value: 0
      objectReference: {fileID: 0}
    - target: {fileID: 5867689244054825068, guid: 91a6f20cfd256e74b930e72d2e0c2460, type: 3}
      propertyPath: m_LocalEulerAnglesHint.z
      value: 0
      objectReference: {fileID: 0}
    m_RemovedComponents: []
  m_SourcePrefab: {fileID: 100100000, guid: 91a6f20cfd256e74b930e72d2e0c2460, type: 3}
