{"msg":"init","dagFile":"artifacts\\tundra.dag","targets":[]}
{"msg":"enqueueNode","enqueuedNodeAnnotation":"all_tundra_nodes","enqueuedNodeIndex":0}
{"msg":"enqueueNode","enqueuedNodeAnnotation":"WriteResponseFile artifacts/rsp/1293163273542377630.rsp","enqueuedNodeIndex":1,"enqueueingNodeAnnotation":"all_tundra_nodes","enqueueingNodeIndex":0}
{"msg":"enqueueNode","enqueuedNodeAnnotation":"Il2Cpp D:/Unity projects/the-collector/Obstacle Course/Library/Il2cppBuildCache/WebGL/Native/build.bc","enqueuedNodeIndex":2,"enqueueingNodeAnnotation":"all_tundra_nodes","enqueueingNodeIndex":0}
{"msg":"inputSignatureChanged","annotation":"Il2Cpp D:/Unity projects/the-collector/Obstacle Course/Library/Il2cppBuildCache/WebGL/Native/build.bc","index":2,"changes":[{"key":"InputFileDigest","path":"D:\\Unity projects\\the-collector\\Obstacle Course\\Temp\\StagingArea\\Data\\Managed\\Bolt.Core.Runtime.dll","dependency":"explicit"},{"key":"InputFileDigest","path":"D:\\Unity projects\\the-collector\\Obstacle Course\\Temp\\StagingArea\\Data\\Managed\\Ludiq.Core.Runtime.dll","dependency":"explicit"},{"key":"InputFileDigest","path":"D:\\Unity projects\\the-collector\\Obstacle Course\\Temp\\StagingArea\\Data\\Managed\\Ludiq.Graphs.Runtime.dll","dependency":"explicit"}]}
{"msg":"noderesult","annotation":"Il2Cpp D:/Unity projects/the-collector/Obstacle Course/Library/Il2cppBuildCache/WebGL/Native/build.bc","index":2,"exitcode":0}
